1 54 64
2 16 38
3 42 54
4 71 20
5 40 43
6 26 96
7 89 50
8 31 22
9 43 43
10 66 55
11 87 20
12 10 1
13 32 12
14 32 91
15 92 96
16 85 94
17 66 35
18 80 18
19 30 29
20 52 8
21 72 8
22 91 86
23 70 39
24 41 48
25 32 79
26 47 54
27 21 49
28 51 29
29 74 57
30 20 21
31 34 61
32 97 26
33 96 72
34 77 18
35 21 10
36 70 10
37 78 6
38 90 69
39 86 65
40 2 30
41 26 83
42 68 8
43 68 15
44 53 65
45 16 24
46 91 55
47 90 85
48 7 41
49 59 63
50 67 72
51 37 54
52 78 95
53 71 24
54 93 60
55 25 97
56 36 28
57 66 61
58 33 31
59 3 20
60 31 91
61 46 67
62 7 40
63 51 34
64 46 59
65 19 35
66 94 80
67 4 12
68 56 52
69 19 84
70 49 37
