1 31 12
2 16 76
3 73 96
4 95 15
5 86 7
6 19 90
7 34 12
8 36 98
9 43 56
10 97 8
11 3 21
12 60 93
13 93 2
14 72 55
15 36 25
16 36 85
17 2 82
18 24 87
19 72 3
20 59 93
21 96 59
22 29 90
23 26 15
24 41 3
25 74 4
26 3 39
27 96 70
28 12 54
29 16 40
30 60 26
31 99 55
32 32 7
33 21 56
34 84 48
35 96 23
36 22 52
37 44 77
38 14 57
39 46 49
40 2 100
41 58 2
42 31 74
43 65 45
44 41 20
45 13 95
46 77 63
47 5 39
48 27 48
49 22 51
50 70 69
51 33 15
52 35 56
53 53 14
54 39 18
55 35 19
56 26 86
57 31 64
58 67 82
59 25 23
60 41 40
61 59 66
62 53 3
63 69 51
64 21 38
65 46 75
66 79 78
67 25 76
68 31 40
69 50 12
70 98 18
