1 60 13
2 49 69
3 34 89
4 45 47
5 74 9
6 63 67
7 66 30
8 30 98
9 16 56
10 34 25
11 56 65
12 51 45
13 75 97
14 91 79
15 97 77
16 49 100
17 6 2
18 49 33
19 54 64
20 83 31
21 57 55
22 28 75
23 96 7
24 19 11
25 30 15
26 100 60
27 58 12
28 15 29
29 28 27
30 38 51
31 7 3
32 40 71
33 41 1
34 77 31
35 18 79
36 87 52
37 27 55
38 97 67
39 72 47
40 14 18
41 10 18
42 10 46
43 61 92
44 78 12
45 93 91
46 58 65
47 100 37
48 7 94
49 83 86
50 33 90
51 63 45
52 57 37
53 24 8
54 4 76
55 22 93
56 10 65
57 49 9
58 50 47
59 4 11
60 54 78
61 40 10
62 21 38
63 57 72
64 6 24
65 1 74
66 93 7
67 33 59
68 19 29
69 45 50
70 55 2
