1 51 31
2 13 17
3 86 7
4 76 64
5 85 98
6 87 98
7 95 80
8 38 51
9 41 82
10 87 53
11 61 34
12 38 55
13 63 78
14 22 49
15 75 73
16 90 41
17 39 72
18 97 76
19 39 2
20 75 80
21 3 22
22 67 6
23 67 87
24 48 45
25 50 6
26 82 16
27 16 91
28 45 61
29 74 32
30 67 79
31 16 57
32 19 31
33 3 13
34 4 18
35 26 63
36 71 13
37 56 94
38 23 8
39 88 45
40 11 67
41 13 59
42 16 62
43 8 67
44 10 62
45 93 84
46 55 66
47 35 65
48 89 43
49 47 62
50 26 75
51 67 53
52 6 61
53 63 86
54 70 80
55 56 87
56 49 73
57 85 99
58 51 36
59 36 91
60 62 94
61 39 1
62 17 42
63 57 52
64 65 17
65 80 22
66 89 98
67 37 73
68 97 94
69 47 58
70 54 16
