1 47 32
2 6 92
3 70 78
4 30 98
5 12 93
6 3 14
7 17 87
8 5 98
9 32 82
10 50 42
11 66 79
12 78 33
13 77 83
14 6 71
15 53 99
16 52 62
17 56 80
18 98 88
19 95 60
20 4 36
21 84 48
22 38 49
23 69 10
24 50 93
25 63 16
26 37 14
27 92 81
28 26 38
29 72 88
30 43 51
31 27 93
32 72 63
33 76 31
34 85 98
35 88 14
36 39 49
37 40 19
38 31 89
39 69 92
40 98 22
41 62 41
42 58 40
43 75 48
44 73 69
45 15 79
46 38 97
47 77 26
48 75 24
49 96 39
50 29 58
51 67 9
52 57 5
53 8 46
54 89 38
55 37 2
56 77 29
57 21 10
58 91 14
59 61 67
60 79 75
61 82 43
62 62 21
63 99 32
64 75 22
65 11 46
66 23 18
67 4 53
68 54 33
69 17 58
70 48 12
