1 96 69
2 78 88
3 48 59
4 18 15
5 7 43
6 52 48
7 22 70
8 9 21
9 3 33
10 73 35
11 19 59
12 28 13
13 56 79
14 49 55
15 50 9
16 88 74
17 17 6
18 97 83
19 80 53
20 4 14
21 41 26
22 25 54
23 61 75
24 11 72
25 33 20
26 5 9
27 84 55
28 12 14
29 3 68
30 72 11
31 37 88
32 24 63
33 32 46
34 38 19
35 83 66
36 46 17
37 55 86
38 4 28
39 45 13
40 34 12
41 48 2
42 95 67
43 99 92
44 93 53
45 40 67
46 13 61
47 97 72
48 75 13
49 25 69
50 85 62
51 80 53
52 96 84
53 95 15
54 43 29
55 20 61
56 65 3
57 82 3
58 96 84
59 65 97
60 17 23
61 15 62
62 41 24
63 6 59
64 70 70
65 79 46
66 55 95
67 46 14
68 91 41
69 10 90
70 27 30
