1 30 15
2 65 88
3 65 27
4 11 82
5 65 68
6 37 44
7 93 56
8 98 40
9 88 36
10 46 10
11 24 35
12 84 28
13 62 86
14 10 62
15 60 64
16 21 17
17 83 4
18 65 27
19 17 32
20 64 79
21 10 95
22 40 67
23 51 3
24 4 6
25 5 65
26 36 40
27 15 70
28 98 85
29 94 48
30 26 2
31 17 77
32 29 56
33 30 5
34 60 85
35 93 91
36 65 3
37 73 87
38 87 44
39 95 44
40 38 34
41 85 55
42 90 42
43 91 40
44 34 10
45 35 64
46 29 27
47 72 16
48 95 36
49 13 12
50 96 47
51 80 74
52 32 23
53 63 46
54 97 44
55 41 74
56 51 99
57 26 43
58 23 5
59 17 82
60 98 4
61 94 33
62 50 67
63 66 89
64 7 18
65 79 6
66 52 5
67 16 90
68 59 78
69 89 65
70 15 55
