1 63 13
2 48 64
3 87 46
4 20 5
5 14 82
6 69 57
7 16 4
8 3 8
9 86 22
10 71 88
11 99 54
12 58 7
13 32 19
14 98 25
15 40 76
16 76 40
17 24 91
18 51 74
19 79 47
20 26 21
21 69 82
22 34 50
23 12 2
24 54 34
25 22 98
26 12 90
27 3 65
28 4 92
29 15 25
30 81 57
31 31 44
32 41 57
33 3 93
34 55 73
35 35 77
36 90 17
37 14 24
38 54 48
39 71 54
40 93 34
41 25 14
42 21 43
43 94 91
44 65 49
45 31 4
46 35 16
47 38 76
48 79 52
49 48 96
50 50 15
51 17 68
52 49 15
53 11 44
54 39 48
55 36 65
56 38 81
57 94 90
58 51 8
59 16 33
60 67 29
61 43 90
62 80 53
63 29 95
64 47 82
65 12 70
66 55 65
67 45 89
68 14 100
69 24 71
70 28 60
