1 61 96
2 19 64
3 49 89
4 44 37
5 97 13
6 70 40
7 5 49
8 79 5
9 8 44
10 94 25
11 69 27
12 30 84
13 13 56
14 86 29
15 18 94
16 11 41
17 5 22
18 93 23
19 4 87
20 7 35
21 48 2
22 59 99
23 77 72
24 77 17
25 2 92
26 82 1
27 6 73
28 72 84
29 46 36
30 85 3
31 13 61
32 53 99
33 25 92
34 4 69
35 22 12
36 42 74
37 6 74
38 71 63
39 26 19
40 62 11
41 40 45
42 40 21
43 51 73
44 12 9
45 48 76
46 91 93
47 52 3
48 37 38
49 10 73
50 75 44
51 8 78
52 21 63
53 71 57
54 54 11
55 27 78
56 85 47
57 61 13
58 59 34
59 83 15
60 11 99
61 21 99
62 63 42
63 43 31
64 53 98
65 47 22
66 66 5
67 15 47
68 93 76
69 48 66
70 82 42
