1 65 21
2 31 70
3 83 79
4 33 58
5 38 44
6 9 79
7 95 35
8 70 2
9 71 97
10 75 30
11 63 43
12 7 34
13 80 53
14 60 25
15 21 79
16 84 25
17 80 96
18 5 36
19 55 64
20 74 65
21 81 51
22 99 3
23 14 66
24 67 6
25 83 64
26 29 98
27 7 66
28 72 41
29 8 55
30 27 53
31 34 90
32 37 75
33 13 19
34 52 42
35 24 94
36 69 39
37 50 6
38 68 37
39 79 24
40 80 65
41 9 54
42 39 17
43 37 26
44 35 42
45 88 84
46 40 45
47 49 29
48 16 14
49 78 62
50 74 9
51 60 84
52 1 51
53 51 18
54 11 16
55 12 70
56 52 83
57 63 36
58 25 58
59 53 54
60 20 93
61 79 97
62 61 42
63 62 27
64 53 73
65 96 91
66 2 68
67 86 89
68 31 41
69 91 87
70 51 89
