1 17 45
2 89 91
3 65 2
4 76 74
5 59 79
6 7 63
7 23 69
8 66 85
9 82 30
10 10 41
11 90 89
12 61 64
13 69 54
14 18 80
15 46 86
16 12 81
17 40 98
18 49 62
19 58 29
20 97 35
21 84 29
22 30 49
23 12 43
24 93 49
25 90 15
26 24 3
27 54 80
28 56 14
29 97 93
30 72 67
31 52 55
32 19 7
33 56 75
34 45 13
35 52 41
36 97 62
37 3 30
38 6 43
39 69 31
40 16 12
41 45 23
42 88 61
43 73 59
44 33 85
45 60 21
46 84 8
47 97 85
48 94 72
49 11 58
50 50 47
51 55 43
52 88 47
53 61 65
54 16 29
55 65 49
56 13 59
57 19 56
58 16 8
59 6 75
60 65 80
61 82 88
62 26 22
63 56 85
64 34 20
65 5 72
66 17 38
67 75 29
68 8 98
69 60 56
70 18 60
