1 100 77
2 82 18
3 35 44
4 86 61
5 62 31
6 12 52
7 18 7
8 72 39
9 22 66
10 79 70
11 50 72
12 18 12
13 90 53
14 75 26
15 22 25
16 86 10
17 11 75
18 99 49
19 54 76
20 38 94
21 81 66
22 76 4
23 27 70
24 90 56
25 92 91
26 87 6
27 21 53
28 12 54
29 76 10
30 4 10
31 77 17
32 10 38
33 66 83
34 40 46
35 61 85
36 44 18
37 72 62
38 23 34
39 41 84
40 43 4
41 66 18
42 62 43
43 85 55
44 40 8
45 81 53
46 44 35
47 64 46
48 20 3
49 23 67
50 34 48
51 68 56
52 71 53
53 91 80
54 84 59
55 39 45
56 66 97
57 24 29
58 70 3
59 9 8
60 35 4
61 35 17
62 25 50
63 61 6
64 66 77
65 83 32
66 87 55
67 93 65
68 17 40
69 45 26
70 77 61
