1 93 32
2 97 2
3 13 99
4 43 41
5 95 41
6 57 71
7 24 87
8 56 66
9 58 65
10 89 30
11 63 72
12 34 82
13 88 10
14 99 3
15 25 62
16 6 58
17 44 46
18 53 52
19 57 2
20 51 13
21 76 68
22 13 55
23 26 7
24 97 36
25 95 8
26 92 49
27 74 60
28 30 60
29 47 10
30 22 41
31 12 76
32 10 99
33 92 78
34 21 71
35 97 19
36 9 50
37 10 78
38 93 48
39 51 86
40 56 51
41 9 98
42 25 45
43 69 61
44 92 13
45 49 85
46 1 49
47 55 18
48 46 3
49 80 28
50 30 90
51 60 94
52 11 98
53 89 17
54 84 14
55 41 32
56 46 95
57 64 59
58 56 32
59 26 64
60 82 90
61 63 52
62 15 23
63 96 84
64 43 10
65 4 32
66 88 9
67 75 63
68 77 16
69 62 71
70 53 79
