1 50 54
2 32 58
3 67 21
4 31 4
5 92 2
6 3 100
7 8 18
8 27 27
9 77 35
10 87 42
11 37 51
12 18 15
13 25 77
14 71 75
15 29 39
16 29 50
17 17 76
18 21 66
19 8 64
20 60 1
21 53 44
22 77 61
23 7 84
24 41 57
25 17 50
26 67 67
27 47 15
28 94 46
29 55 84
30 23 88
31 22 70
32 12 92
33 74 78
34 14 26
35 92 62
36 47 57
37 40 89
38 93 41
39 5 73
40 14 28
41 99 46
42 60 81
43 8 80
44 3 75
45 10 64
46 23 65
47 94 44
48 6 77
49 79 11
50 85 39
51 48 68
52 60 91
53 25 47
54 48 82
55 3 12
56 95 9
57 37 19
58 7 90
59 21 68
60 1 54
61 63 20
62 79 5
63 75 7
64 2 57
65 95 15
66 41 20
67 51 73
68 47 86
69 83 20
70 61 43
