1 98 37
2 13 90
3 65 88
4 6 60
5 15 34
6 62 80
7 6 77
8 93 75
9 12 94
10 25 77
11 90 98
12 3 33
13 72 41
14 7 60
15 4 33
16 93 52
17 48 10
18 24 80
19 80 19
20 8 15
21 55 59
22 1 88
23 12 43
24 17 35
25 82 31
26 63 34
27 62 82
28 75 80
29 20 84
30 58 18
31 99 16
32 98 58
33 93 81
34 79 14
35 39 96
36 39 72
37 14 43
38 9 48
39 94 86
40 85 29
41 37 65
42 61 48
43 51 54
44 69 17
45 38 98
46 61 41
47 41 34
48 89 43
49 98 85
50 7 33
51 39 48
52 40 35
53 8 67
54 69 30
55 66 93
56 60 100
57 65 50
58 87 43
59 8 85
60 89 54
61 17 32
62 88 34
63 42 69
64 40 10
65 81 93
66 12 45
67 84 94
68 80 23
69 3 52
70 45 70
