1 27 65
2 43 98
3 10 61
4 46 38
5 79 82
6 93 51
7 14 51
8 2 86
9 20 29
10 93 3
11 81 31
12 65 40
13 56 7
14 55 64
15 52 64
16 93 85
17 87 56
18 41 2
19 66 24
20 85 79
21 56 7
22 8 13
23 24 18
24 85 68
25 4 92
26 55 75
27 48 97
28 85 58
29 50 35
30 92 56
31 70 7
32 50 57
33 76 77
34 17 73
35 15 10
36 47 74
37 24 96
38 96 32
39 13 77
40 92 78
41 10 61
42 80 20
43 15 31
44 14 31
45 44 64
46 8 60
47 19 50
48 14 68
49 71 15
50 37 34
51 21 52
52 59 53
53 16 86
54 84 60
55 60 22
56 73 90
57 46 41
58 76 38
59 95 7
60 45 97
61 46 1
62 15 59
63 79 83
64 50 47
65 6 92
66 50 70
67 51 73
68 83 65
69 13 49
70 76 10
