1 89 98
2 31 8
3 43 37
4 13 97
5 95 41
6 30 2
7 95 74
8 31 99
9 73 84
10 2 9
11 13 58
12 3 25
13 46 11
14 26 21
15 53 26
16 72 70
17 32 38
18 34 75
19 94 73
20 72 79
21 70 32
22 84 45
23 68 44
24 51 63
25 67 72
26 45 91
27 9 86
28 12 79
29 45 96
30 86 74
31 17 65
32 65 76
33 18 86
34 92 28
35 29 43
36 91 3
37 63 38
38 81 98
39 10 20
40 23 73
41 23 76
42 37 46
43 45 38
44 26 1
45 1 46
46 54 6
47 56 47
48 8 93
49 85 54
50 99 16
51 25 34
52 31 10
53 76 80
54 82 1
55 25 10
56 39 73
57 31 52
58 33 27
59 76 69
60 94 63
61 16 78
62 4 12
63 5 3
64 34 49
65 75 43
66 75 2
67 14 75
68 31 6
69 13 71
70 75 8
