1 86 74
2 72 76
3 87 75
4 12 65
5 89 9
6 80 4
7 68 61
8 10 75
9 27 38
10 16 83
11 18 32
12 93 67
13 15 99
14 16 45
15 98 41
16 85 30
17 18 94
18 89 28
19 9 41
20 72 72
21 6 25
22 7 91
23 48 99
24 55 68
25 18 88
26 12 92
27 88 79
28 18 60
29 48 41
30 39 22
31 61 77
32 100 31
33 33 15
34 53 5
35 53 28
36 92 35
37 60 8
38 85 65
39 25 72
40 29 88
41 84 28
42 99 50
43 26 82
44 13 34
45 55 5
46 60 17
47 39 54
48 34 52
49 66 59
50 13 83
51 21 63
52 15 45
53 2 41
54 86 44
55 73 77
56 57 85
57 11 25
58 94 41
59 7 36
60 12 15
61 85 70
62 60 6
63 33 92
64 51 21
65 52 43
66 48 55
67 64 15
68 62 63
69 77 2
70 9 59
