1 22 25
2 94 51
3 15 87
4 46 10
5 49 24
6 2 74
7 54 32
8 78 46
9 38 78
10 34 9
11 16 96
12 6 96
13 91 75
14 43 55
15 16 83
16 64 24
17 23 82
18 5 66
19 76 91
20 62 82
21 25 45
22 19 22
23 97 96
24 43 31
25 46 45
26 39 67
27 46 89
28 68 96
29 87 26
30 97 15
31 52 80
32 98 11
33 7 77
34 54 5
35 22 65
36 2 97
37 34 77
38 58 34
39 61 55
40 66 39
41 2 11
42 11 38
43 11 65
44 26 85
45 91 31
46 57 47
47 96 70
48 2 43
49 82 6
50 77 97
51 90 20
52 53 15
53 25 6
54 93 6
55 84 16
56 41 9
57 18 68
58 94 8
59 74 55
60 7 6
61 1 19
62 64 56
63 65 33
64 60 93
65 60 57
66 33 89
67 73 7
68 83 59
69 48 2
70 32 50
