1 10 92
2 73 39
3 71 83
4 93 57
5 37 76
6 86 27
7 76 98
8 19 63
9 76 64
10 80 48
11 76 22
12 58 76
13 64 51
14 51 85
15 93 50
16 30 19
17 96 73
18 26 44
19 58 68
20 44 54
21 5 70
22 84 83
23 94 95
24 76 58
25 48 9
26 92 20
27 17 85
28 61 47
29 20 64
30 45 90
31 46 93
32 90 76
33 66 72
34 28 75
35 31 4
36 28 94
37 15 34
38 85 89
39 80 22
40 39 62
41 16 91
42 6 30
43 20 28
44 28 36
45 99 61
46 16 90
47 47 92
48 88 9
49 46 30
50 88 35
51 8 55
52 73 20
53 57 18
54 66 40
55 81 65
56 66 24
57 58 98
58 91 87
59 82 84
60 72 20
61 98 85
62 53 37
63 66 56
64 23 47
65 67 74
66 43 41
67 61 30
68 85 43
69 29 60
70 33 43
