1 68 77
2 97 60
3 55 4
4 55 59
5 81 49
6 81 99
7 89 66
8 20 84
9 34 58
10 7 25
11 55 27
12 22 64
13 30 74
14 10 69
15 5 67
16 95 51
17 49 50
18 52 17
19 8 36
20 45 6
21 8 50
22 10 11
23 8 59
24 89 42
25 19 55
26 83 32
27 3 28
28 36 37
29 76 14
30 21 39
31 25 28
32 50 97
33 47 73
34 49 62
35 45 53
36 48 89
37 76 58
38 19 73
39 80 65
40 100 38
41 3 19
42 64 5
43 19 26
44 42 76
45 91 44
46 73 44
47 57 86
48 2 74
49 77 29
50 69 78
51 48 40
52 42 11
53 15 14
54 11 10
55 62 39
56 11 24
57 51 77
58 95 32
59 61 76
60 5 15
61 5 2
62 81 66
63 85 19
64 48 18
65 56 88
66 23 62
67 51 20
68 78 34
69 54 49
70 15 60
