1 74 93
2 91 20
3 44 62
4 22 8
5 2 58
6 28 98
7 8 82
8 4 87
9 6 58
10 80 18
11 94 55
12 78 8
13 49 21
14 11 81
15 38 57
16 84 43
17 25 3
18 46 100
19 6 73
20 92 86
21 46 15
22 17 96
23 97 7
24 97 74
25 46 6
26 1 66
27 60 34
28 16 84
29 6 12
30 77 99
31 5 45
32 4 90
33 74 65
34 5 76
35 49 26
36 84 80
37 18 63
38 97 13
39 65 16
40 82 44
41 71 10
42 26 71
43 38 22
44 83 9
45 8 5
46 22 41
47 42 98
48 91 53
49 19 11
50 2 74
51 26 89
52 11 70
53 4 71
54 97 85
55 12 28
56 31 5
57 79 95
58 4 15
59 9 7
60 35 43
61 93 10
62 35 54
63 31 4
64 8 72
65 60 61
66 97 33
67 41 73
68 65 99
69 93 93
70 72 72
