1 28 78
2 49 63
3 14 11
4 34 86
5 27 81
6 35 43
7 98 91
8 90 23
9 88 15
10 82 43
11 12 73
12 93 39
13 61 26
14 77 16
15 81 20
16 10 49
17 70 39
18 46 95
19 55 46
20 24 23
21 34 15
22 63 89
23 21 60
24 95 12
25 85 79
26 63 36
27 34 77
28 35 41
29 10 21
30 69 23
31 64 87
32 81 53
33 89 37
34 30 72
35 45 94
36 98 26
37 72 55
38 72 81
39 46 11
40 87 46
41 39 7
42 67 28
43 51 19
44 4 47
45 92 72
46 8 45
47 52 90
48 90 9
49 57 83
50 92 46
51 50 76
52 25 24
53 87 87
54 35 24
55 80 48
56 76 18
57 95 78
58 74 6
59 33 12
60 79 40
61 83 86
62 3 70
63 4 79
64 12 17
65 96 30
66 3 33
67 45 2
68 95 56
69 80 37
70 4 89
