1 97 11
2 52 64
3 36 4
4 79 7
5 48 38
6 12 44
7 81 21
8 37 56
9 47 34
10 28 24
11 39 32
12 56 68
13 33 7
14 19 32
15 64 37
16 97 53
17 99 9
18 24 46
19 29 17
20 57 25
21 86 62
22 40 94
23 14 28
24 58 36
25 88 46
26 59 19
27 23 71
28 49 66
29 68 37
30 34 98
31 8 25
32 21 86
33 92 27
34 45 41
35 1 29
36 35 72
37 66 87
38 85 31
39 65 41
40 57 86
41 97 12
42 55 40
43 60 54
44 17 27
45 55 6
46 69 10
47 8 75
48 65 27
49 56 54
50 79 81
51 85 63
52 58 32
53 57 35
54 10 99
55 22 34
56 39 23
57 55 13
58 94 78
59 8 27
60 45 18
61 11 79
62 47 21
63 23 34
64 23 23
65 73 66
66 20 12
67 68 88
68 51 56
69 28 18
70 97 64
