1 67 73
2 60 57
3 38 98
4 90 10
5 79 92
6 7 97
7 3 91
8 56 76
9 88 32
10 26 33
11 97 45
12 42 93
13 78 40
14 62 66
15 24 43
16 39 51
17 91 57
18 92 56
19 25 6
20 48 69
21 89 30
22 96 18
23 78 3
24 29 59
25 78 29
26 86 43
27 60 86
28 8 90
29 96 92
30 90 21
31 54 34
32 52 76
33 66 67
34 15 79
35 42 99
36 2 67
37 8 77
38 55 39
39 43 87
40 71 63
41 9 93
42 75 77
43 21 26
44 5 31
45 70 21
46 49 2
47 54 63
48 1 36
49 2 97
50 65 43
51 67 75
52 96 94
53 84 7
54 90 58
55 26 76
56 15 24
57 98 97
58 99 39
59 90 55
60 74 19
61 10 26
62 67 46
63 38 15
64 62 32
65 22 99
66 20 43
67 44 28
68 66 70
69 86 43
70 52 51
71 25 5
72 78 5
73 78 67
74 8 13
75 45 74
76 46 88
77 39 58
78 15 69
79 86 74
80 99 90
81 69 75
82 96 49
83 80 57
84 38 43
85 96 65
86 32 71
87 3 11
88 73 98
89 99 81
90 85 59
