1 26 40
2 21 66
3 39 27
4 98 63
5 5 82
6 75 77
7 6 35
8 96 29
9 42 37
10 99 79
11 68 67
12 64 80
13 95 40
14 55 73
15 60 9
16 66 47
17 17 8
18 71 20
19 49 14
20 84 60
21 68 84
22 19 22
23 84 46
24 78 89
25 12 89
26 42 22
27 14 44
28 95 95
29 42 91
30 57 11
31 55 94
32 55 94
33 2 86
34 12 43
35 36 18
36 82 36
37 48 88
38 8 78
39 93 67
40 20 92
41 84 36
42 84 21
43 38 42
44 86 59
45 52 12
46 68 80
47 78 8
48 12 70
49 90 70
50 81 41
51 9 36
52 23 27
53 57 77
54 15 46
55 58 49
56 98 32
57 3 74
58 59 94
59 9 86
60 87 48
61 23 36
62 8 47
63 64 76
64 85 60
65 60 57
66 12 47
67 90 20
68 75 47
69 75 40
70 7 54
71 20 93
72 32 80
73 76 5
74 93 91
75 7 56
76 87 18
77 18 3
78 85 4
79 59 78
80 62 24
81 51 49
82 23 23
83 24 75
84 50 91
85 47 63
86 41 57
87 35 55
88 78 87
89 79 28
90 4 87
