1 4 50
2 40 18
3 93 23
4 53 82
5 58 13
6 37 60
7 90 94
8 50 52
9 73 90
10 70 67
11 35 14
12 5 68
13 53 70
14 64 94
15 63 52
16 45 11
17 69 6
18 66 2
19 16 38
20 42 87
21 22 24
22 5 54
23 29 74
24 62 92
25 65 51
26 25 36
27 90 65
28 70 77
29 97 52
30 77 78
31 61 64
32 9 32
33 7 74
34 70 98
35 58 24
36 26 82
37 87 12
38 88 53
39 91 64
40 78 98
41 17 76
42 68 99
43 80 57
44 88 16
45 89 87
46 40 77
47 15 14
48 66 66
49 18 71
50 34 92
51 90 92
52 93 27
53 99 67
54 42 23
55 5 16
56 75 73
57 38 56
58 50 33
59 9 1
60 44 57
61 31 94
62 27 97
63 30 1
64 36 84
65 24 64
66 76 45
67 51 60
68 24 10
69 20 35
70 59 9
71 58 83
72 15 51
73 56 36
74 62 85
75 45 15
76 11 5
77 41 42
78 50 23
79 79 31
80 28 80
81 58 74
82 60 99
83 41 44
84 86 47
85 23 12
86 72 32
87 9 23
88 53 91
89 13 14
90 37 88
