1 61 41
2 37 22
3 68 26
4 7 11
5 81 96
6 93 55
7 36 81
8 76 81
9 99 78
10 78 95
11 66 12
12 84 51
13 30 3
14 62 72
15 56 74
16 36 75
17 99 8
18 63 28
19 75 56
20 65 85
21 21 45
22 74 50
23 77 67
24 38 79
25 19 84
26 45 14
27 54 59
28 17 22
29 29 31
30 28 46
31 64 44
32 92 59
33 51 56
34 93 90
35 25 31
36 75 49
37 70 40
38 95 96
39 53 78
40 42 97
41 37 27
42 11 8
43 86 52
44 61 10
45 13 91
46 36 75
47 57 1
48 65 57
49 77 21
50 43 80
51 28 40
52 92 54
53 95 5
54 8 60
55 90 54
56 94 44
57 48 42
58 90 61
59 36 7
60 95 7
61 32 60
62 83 91
63 70 63
64 28 68
65 9 41
66 22 95
67 13 26
68 17 31
69 30 65
70 57 36
71 35 88
72 40 8
73 16 71
74 87 88
75 85 91
76 38 83
77 100 16
78 61 51
79 55 98
80 97 70
81 38 58
82 30 64
83 22 83
84 86 88
85 71 54
86 76 45
87 46 27
88 66 55
89 66 57
90 96 31
