1 40 95
2 81 24
3 88 75
4 40 29
5 92 23
6 90 11
7 31 21
8 54 24
9 13 78
10 72 14
11 72 32
12 45 83
13 25 16
14 100 19
15 58 76
16 1 72
17 41 83
18 75 84
19 20 27
20 99 50
21 93 30
22 11 94
23 34 80
24 72 80
25 32 19
26 82 10
27 53 71
28 35 35
29 75 64
30 36 42
31 88 19
32 76 29
33 34 67
34 61 38
35 64 67
36 13 58
37 92 75
38 25 72
39 28 51
40 4 48
41 50 48
42 68 58
43 28 68
44 33 23
45 31 37
46 67 67
47 48 68
48 43 78
49 50 81
50 56 61
51 13 47
52 47 74
53 48 8
54 9 41
55 45 61
56 89 34
57 81 52
58 91 2
59 95 52
60 75 60
61 84 86
62 65 5
63 28 79
64 61 64
65 84 67
66 64 61
67 71 73
68 12 99
69 82 81
70 30 27
71 33 93
72 11 19
73 3 23
74 4 11
75 70 4
76 42 36
77 92 67
78 91 96
79 33 59
80 33 7
81 96 65
82 84 73
83 63 4
84 55 12
85 87 51
86 43 84
87 55 81
88 87 62
89 57 55
90 46 83
