1 46 45
2 47 22
3 70 22
4 81 2
5 85 14
6 98 57
7 11 19
8 85 66
9 54 26
10 79 36
11 89 95
12 15 79
13 71 25
14 69 92
15 81 15
16 44 22
17 74 56
18 52 14
19 10 44
20 49 36
21 29 48
22 75 61
23 89 40
24 46 5
25 93 7
26 68 3
27 28 50
28 97 36
29 56 16
30 34 60
31 84 23
32 73 71
33 26 60
34 90 64
35 99 28
36 87 96
37 88 54
38 83 31
39 79 99
40 79 69
41 28 78
42 57 38
43 50 79
44 74 56
45 6 45
46 91 26
47 65 81
48 98 89
49 9 56
50 94 2
51 85 62
52 54 29
53 52 90
54 67 63
55 18 12
56 65 38
57 47 91
58 25 33
59 10 48
60 76 75
61 40 74
62 79 99
63 18 32
64 21 93
65 98 44
66 87 78
67 30 88
68 52 57
69 72 23
70 61 82
71 56 43
72 29 68
73 11 98
74 40 7
75 76 74
76 73 6
77 46 70
78 27 20
79 53 68
80 85 76
81 36 27
82 82 77
83 9 100
84 21 82
85 70 18
86 87 40
87 64 15
88 33 92
89 42 53
90 62 5
