1 87 76
2 64 11
3 51 11
4 74 57
5 48 44
6 45 29
7 11 48
8 87 58
9 89 85
10 16 48
11 4 73
12 24 42
13 93 21
14 19 38
15 41 5
16 85 22
17 41 40
18 100 19
19 97 28
20 88 44
21 33 26
22 40 70
23 69 25
24 67 53
25 84 89
26 39 66
27 94 20
28 51 77
29 70 22
30 80 9
31 33 29
32 93 26
33 39 54
34 36 82
35 10 32
36 76 92
37 91 28
38 52 19
39 27 53
40 66 82
41 14 88
42 89 71
43 25 48
44 34 41
45 79 76
46 23 8
47 21 17
48 44 2
49 15 45
50 10 9
51 100 14
52 99 42
53 22 80
54 21 86
55 72 82
56 54 57
57 66 37
58 27 8
59 89 98
60 78 39
61 28 90
62 55 35
63 31 21
64 4 77
65 15 96
66 5 78
67 47 62
68 10 64
69 38 64
70 23 61
71 63 69
72 92 16
73 48 43
74 52 94
75 49 13
76 82 5
77 38 22
78 26 68
79 53 97
80 29 7
81 4 41
82 40 52
83 94 73
84 48 58
85 70 15
86 79 12
87 22 69
88 36 28
89 81 67
90 8 33
