1 89 31
2 60 36
3 8 76
4 25 38
5 93 72
6 61 91
7 47 54
8 14 42
9 40 43
10 71 42
11 10 75
12 12 22
13 21 37
14 92 30
15 6 54
16 15 65
17 27 19
18 26 66
19 68 13
20 6 72
21 25 80
22 5 23
23 58 46
24 65 7
25 9 6
26 97 38
27 43 93
28 53 57
29 98 55
30 59 41
31 33 25
32 48 20
33 15 51
34 60 84
35 83 41
36 51 84
37 7 92
38 70 89
39 57 82
40 54 34
41 50 64
42 3 2
43 50 56
44 64 66
45 100 71
46 25 66
47 75 69
48 98 14
49 13 80
50 33 10
51 21 80
52 33 85
53 26 74
54 86 31
55 55 58
56 26 21
57 5 21
58 2 17
59 7 58
60 88 51
61 44 53
62 15 59
63 3 7
64 30 79
65 43 60
66 4 86
67 65 2
68 62 67
69 35 93
70 72 13
71 76 20
72 63 38
73 77 83
74 98 94
75 7 48
76 5 91
77 15 71
78 43 98
79 98 12
80 48 30
81 95 50
82 21 92
83 16 28
84 91 99
85 50 22
86 39 31
87 64 67
88 91 38
89 41 60
90 89 72
