1 58 7
2 78 81
3 49 59
4 9 22
5 45 6
6 22 46
7 96 5
8 61 28
9 42 32
10 75 26
11 27 34
12 36 62
13 39 29
14 78 91
15 65 59
16 20 78
17 14 30
18 9 55
19 17 18
20 46 65
21 56 5
22 58 61
23 19 17
24 41 85
25 45 11
26 62 74
27 49 98
28 43 27
29 96 60
30 2 89
31 7 12
32 83 68
33 67 4
34 61 55
35 43 99
36 24 55
37 28 19
38 49 6
39 69 95
40 62 89
41 88 20
42 87 7
43 17 39
44 97 31
45 97 70
46 53 10
47 58 96
48 56 15
49 98 15
50 92 30
51 4 97
52 90 72
53 44 26
54 89 23
55 43 84
56 22 77
57 85 51
58 6 85
59 63 74
60 66 94
61 10 87
62 72 60
63 24 33
64 6 43
65 49 58
66 52 56
67 92 57
68 33 75
69 52 6
70 63 85
71 48 79
72 56 66
73 13 97
74 61 5
75 41 76
76 59 16
77 62 44
78 88 76
79 20 92
80 37 59
81 31 26
82 81 40
83 19 76
84 82 2
85 67 41
86 45 91
87 11 30
88 41 50
89 12 56
90 89 81
