1 61 19
2 27 19
3 72 59
4 83 9
5 28 61
6 17 69
7 50 44
8 50 21
9 37 70
10 85 52
11 93 58
12 17 84
13 1 87
14 78 36
15 77 33
16 8 60
17 30 24
18 36 68
19 49 53
20 7 99
21 66 51
22 33 57
23 94 45
24 76 79
25 90 99
26 82 55
27 69 86
28 41 50
29 78 67
30 3 65
31 94 24
32 37 88
33 30 46
34 45 54
35 16 97
36 23 76
37 56 58
38 84 78
39 15 89
40 46 74
41 28 3
42 73 25
43 1 77
44 86 27
45 92 20
46 56 62
47 45 1
48 46 63
49 46 62
50 52 8
51 96 41
52 11 22
53 71 83
54 92 96
55 42 15
56 77 82
57 41 34
58 25 83
59 47 80
60 30 13
61 76 74
62 78 33
63 42 53
64 93 26
65 76 3
66 94 40
67 82 35
68 44 49
69 4 81
70 18 57
71 71 60
72 74 11
73 36 96
74 46 31
75 32 48
76 36 35
77 76 13
78 50 57
79 61 70
80 34 46
81 35 47
82 51 41
83 32 34
84 82 96
85 57 61
86 61 79
87 61 68
88 35 92
89 34 51
90 85 47
