1 93 27
2 87 68
3 58 93
4 23 18
5 71 78
6 49 33
7 40 55
8 20 76
9 50 69
10 30 34
11 87 2
12 72 58
13 48 44
14 85 39
15 4 15
16 74 48
17 24 98
18 36 80
19 11 71
20 59 67
21 36 84
22 36 53
23 52 53
24 51 33
25 67 40
26 98 33
27 44 79
28 72 29
29 19 22
30 91 99
31 99 52
32 16 87
33 51 58
34 87 81
35 5 7
36 81 87
37 7 4
38 80 3
39 65 83
40 70 59
41 78 22
42 64 50
43 16 6
44 49 7
45 50 61
46 74 47
47 85 69
48 66 44
49 96 64
50 90 50
51 29 56
52 44 34
53 48 71
54 5 42
55 24 43
56 19 54
57 12 49
58 46 52
59 25 37
60 54 61
61 64 23
62 75 81
63 86 14
64 15 78
65 98 29
66 36 42
67 38 78
68 96 88
69 39 74
70 71 9
71 35 28
72 30 44
73 15 12
74 5 85
75 60 34
76 33 86
77 98 22
78 77 79
79 95 33
80 38 80
81 11 18
82 52 91
83 55 36
84 77 59
85 73 54
86 83 21
87 75 39
88 27 82
89 46 49
90 41 73
