1 32 81
2 19 99
3 64 51
4 5 69
5 30 47
6 71 1
7 69 50
8 28 58
9 61 60
10 98 32
11 84 42
12 62 41
13 74 44
14 36 83
15 50 52
16 96 85
17 95 47
18 52 4
19 55 27
20 57 92
21 55 66
22 81 10
23 88 67
24 27 70
25 77 85
26 14 16
27 63 71
28 10 18
29 27 23
30 45 72
31 95 85
32 69 19
33 28 91
34 99 19
35 50 77
36 26 51
37 30 75
38 4 45
39 46 13
40 15 7
41 56 15
42 26 72
43 25 49
44 11 28
45 96 4
46 85 41
47 85 40
48 12 46
49 73 4
50 15 12
51 74 52
52 83 48
53 66 65
54 86 80
55 45 98
56 74 41
57 2 65
58 10 7
59 77 78
60 85 39
61 1 57
62 78 51
63 56 31
64 2 56
65 92 29
66 89 27
67 18 6
68 94 17
69 91 81
70 23 68
71 57 43
72 80 75
73 33 9
74 78 4
75 94 64
76 41 49
77 75 4
78 84 43
79 11 77
80 9 65
81 61 64
82 59 88
83 37 95
84 15 19
85 46 20
86 43 39
87 16 66
88 97 40
89 81 67
90 86 24
