1 24 19
2 52 87
3 54 54
4 65 15
5 5 13
6 42 80
7 71 76
8 86 73
9 28 67
10 41 83
11 1 48
12 57 96
13 77 93
14 34 84
15 66 40
16 44 51
17 46 36
18 26 64
19 18 8
20 67 14
21 8 58
22 68 38
23 28 96
24 97 63
25 46 53
26 39 92
27 61 46
28 28 79
29 52 60
30 94 46
31 91 19
32 99 57
33 78 91
34 77 23
35 98 33
36 91 38
37 60 80
38 87 34
39 12 17
40 78 46
41 93 31
42 21 72
43 26 63
44 42 38
45 84 87
46 60 22
47 76 8
48 54 73
49 52 17
50 42 76
51 76 13
52 13 84
53 96 98
54 73 77
55 18 70
56 50 74
57 36 30
58 20 54
59 35 8
60 95 10
61 94 45
62 50 85
63 26 16
64 4 40
65 64 43
66 49 69
67 48 83
68 50 28
69 20 33
70 87 6
71 60 44
72 79 79
73 4 85
74 58 94
75 41 44
76 25 6
77 66 6
78 70 39
79 61 9
80 82 80
81 79 7
82 16 71
83 25 33
84 60 20
85 95 7
86 83 85
87 66 78
88 71 72
89 91 35
90 49 77
