1 41 2
2 27 19
3 34 81
4 16 58
5 10 21
6 36 59
7 12 58
8 30 58
9 68 33
10 43 89
11 27 18
12 79 17
13 9 43
14 95 73
15 67 52
16 3 61
17 35 73
18 6 49
19 12 53
20 62 5
21 9 49
22 85 6
23 93 99
24 67 78
25 42 96
26 57 76
27 40 63
28 62 82
29 64 57
30 14 33
31 59 26
32 66 37
33 47 7
34 53 7
35 99 13
36 93 59
37 90 95
38 62 13
39 71 30
40 15 41
41 78 96
42 77 91
43 25 25
44 2 50
45 82 66
46 95 56
47 95 50
48 17 34
49 46 16
50 55 63
51 11 44
52 77 43
53 19 2
54 74 82
55 61 24
56 74 62
57 56 25
58 60 94
59 27 91
60 63 56
61 83 36
62 68 86
63 77 51
64 3 33
65 21 66
66 36 66
67 25 36
68 72 6
69 70 59
70 69 95
71 45 57
72 40 84
73 70 22
74 99 24
75 57 52
76 99 64
77 3 85
78 1 41
79 69 56
80 63 41
81 70 78
82 62 44
83 85 82
84 29 25
85 39 13
86 35 12
87 72 12
88 96 79
89 30 85
90 34 95
