1 72 20
2 9 54
3 96 33
4 95 54
5 90 44
6 65 12
7 12 29
8 76 31
9 57 9
10 96 67
11 26 58
12 28 82
13 93 3
14 93 75
15 2 62
16 46 82
17 5 18
18 53 28
19 95 58
20 4 29
21 41 75
22 92 29
23 50 77
24 45 70
25 15 73
26 18 73
27 37 15
28 41 42
29 83 37
30 58 47
31 78 88
32 99 23
33 92 89
34 66 30
35 15 14
36 50 96
37 82 30
38 75 22
39 47 92
40 79 30
41 58 28
42 23 72
43 37 7
44 41 62
45 22 28
46 36 30
47 68 35
48 16 6
49 64 66
50 76 94
51 71 72
52 42 62
53 24 1
54 51 93
55 15 70
56 9 48
57 3 55
58 87 63
59 52 82
60 6 37
61 54 72
62 62 44
63 37 26
64 44 7
65 20 83
66 5 87
67 98 60
68 28 8
69 41 87
70 52 80
71 75 64
72 2 40
73 28 41
74 76 74
75 22 45
76 53 39
77 86 70
78 62 36
79 68 42
80 73 80
81 19 79
82 62 99
83 44 55
84 93 96
85 76 89
86 99 41
87 69 78
88 70 98
89 77 76
90 46 62
