1 15 16
2 79 83
3 69 17
4 6 38
5 17 100
6 93 19
7 71 59
8 97 97
9 53 79
10 87 41
11 89 34
12 20 1
13 21 90
14 81 92
15 98 18
16 28 9
17 43 43
18 89 93
19 49 26
20 84 31
21 7 26
22 6 87
23 31 18
24 21 32
25 54 22
26 50 4
27 95 26
28 66 39
29 40 42
30 77 22
31 49 91
32 40 75
33 49 61
34 54 61
35 96 10
36 6 98
37 81 79
38 88 73
39 61 95
40 83 49
41 92 89
42 29 49
43 53 54
44 35 18
45 4 50
46 24 41
47 13 69
48 97 22
49 68 87
50 45 96
51 9 3
52 90 94
53 4 94
54 73 5
55 2 2
56 83 86
57 87 50
58 40 52
59 66 28
60 22 80
61 12 48
62 46 92
63 86 88
64 18 21
65 3 44
66 24 37
67 97 91
68 6 48
69 6 4
70 81 39
71 6 99
72 57 55
73 22 76
74 93 14
75 57 11
76 60 48
77 25 71
78 63 49
79 82 38
80 58 27
81 19 54
82 45 47
83 92 17
84 55 72
85 81 45
86 28 61
87 44 6
88 83 48
89 47 45
90 86 64
