1 88 42
2 95 34
3 57 18
4 46 83
5 20 58
6 51 38
7 72 63
8 7 97
9 6 49
10 33 28
11 98 92
12 32 91
13 4 65
14 21 66
15 41 89
16 55 91
17 37 19
18 25 84
19 21 63
20 54 63
21 30 85
22 73 26
23 31 58
24 12 11
25 98 27
26 57 3
27 69 75
28 48 93
29 11 15
30 42 70
31 21 12
32 11 50
33 99 76
34 38 8
35 10 10
36 29 41
37 54 52
38 39 13
39 14 16
40 25 99
41 53 57
42 14 13
43 37 56
44 100 96
45 80 67
46 71 84
47 53 21
48 70 16
49 88 9
50 80 86
51 95 65
52 69 44
53 32 62
54 53 3
55 33 22
56 20 75
57 63 83
58 94 7
59 83 20
60 58 21
61 85 32
62 14 28
63 10 26
64 23 40
65 77 11
66 89 33
67 68 91
68 15 80
69 68 27
70 14 28
71 18 13
72 9 24
73 86 54
74 83 61
75 2 6
76 31 59
77 65 18
78 60 45
79 78 93
80 4 50
81 11 81
82 94 89
83 29 4
84 46 33
85 35 56
86 11 49
87 15 79
88 43 15
89 50 20
90 52 80
