1 58 83
2 90 81
3 35 62
4 59 41
5 11 9
6 84 33
7 58 45
8 7 61
9 21 11
10 66 83
11 46 50
12 96 40
13 57 35
14 35 23
15 90 40
16 37 63
17 23 91
18 12 28
19 27 5
20 63 8
21 65 15
22 61 17
23 77 35
24 29 45
25 54 37
26 62 14
27 62 94
28 71 65
29 18 73
30 58 28
31 64 19
32 31 9
33 47 23
34 54 37
35 62 18
36 38 13
37 53 80
38 82 94
39 27 93
40 56 70
41 94 55
42 38 44
43 73 69
44 98 97
45 68 15
46 59 42
47 83 35
48 91 23
49 56 28
50 92 2
51 86 97
52 19 75
53 40 30
54 99 42
55 4 56
56 11 98
57 75 91
58 39 56
59 55 73
60 9 70
61 32 11
62 8 80
63 28 73
64 85 33
65 90 10
66 46 94
67 7 45
68 32 42
69 10 42
70 1 15
71 70 62
72 2 24
73 46 25
74 53 12
75 50 8
76 22 44
77 50 66
78 14 38
79 43 25
80 68 96
81 8 22
82 73 67
83 96 62
84 93 89
85 58 49
86 18 44
87 55 51
88 31 65
89 71 87
90 11 51
