1 58 6
2 49 43
3 7 85
4 62 60
5 17 44
6 88 74
7 3 84
8 33 70
9 55 44
10 3 22
11 3 27
12 64 42
13 32 56
14 52 57
15 22 80
16 20 72
17 99 20
18 50 59
19 64 6
20 5 99
21 87 93
22 52 42
23 42 95
24 34 91
25 58 14
26 12 93
27 62 32
28 68 37
29 14 44
30 91 26
31 65 55
32 15 58
33 77 60
34 48 44
35 32 38
36 80 28
37 29 30
38 68 18
39 56 84
40 2 5
41 2 12
42 74 74
43 76 32
44 24 79
45 52 70
46 89 97
47 64 70
48 49 29
49 80 96
50 68 48
51 88 70
52 48 92
53 18 44
54 84 83
55 27 28
56 32 53
57 81 82
58 87 2
59 56 16
60 84 31
61 83 53
62 16 91
63 86 56
64 64 91
65 8 45
66 77 97
67 78 96
68 57 72
69 47 82
70 90 97
71 3 7
72 8 9
73 5 23
74 87 91
75 77 77
76 95 83
77 57 65
78 78 4
79 62 43
80 88 83
81 77 81
82 81 96
83 12 12
84 47 72
85 26 44
86 16 97
87 96 4
88 5 71
89 98 79
90 51 40
