1 29 93
2 35 3
3 73 52
4 53 46
5 9 57
6 72 97
7 10 57
8 69 99
9 67 57
10 45 60
11 80 57
12 60 56
13 89 60
14 85 97
15 63 26
16 94 47
17 87 18
18 89 80
19 56 35
20 63 87
21 30 65
22 6 89
23 44 58
24 53 80
25 41 44
26 82 70
27 21 5
28 67 29
29 53 30
30 73 11
31 78 48
32 24 65
33 26 77
34 15 15
35 61 79
36 4 88
37 29 71
38 56 7
39 71 64
40 70 16
41 89 96
42 62 36
43 50 23
44 45 51
45 90 22
46 67 95
47 14 9
48 51 56
49 48 83
50 2 58
51 53 15
52 16 46
53 40 98
54 74 24
55 98 79
56 36 85
57 97 78
58 21 72
59 44 14
60 6 7
61 67 61
62 13 38
63 33 36
64 13 37
65 25 50
66 32 93
67 15 20
68 83 35
69 60 75
70 100 41
71 49 59
72 6 46
73 21 54
74 84 26
75 90 36
76 5 62
77 17 77
78 47 54
79 18 14
80 83 5
81 92 96
82 76 28
83 42 30
84 30 11
85 56 33
86 68 86
87 61 13
88 76 33
89 76 94
90 70 69
