1 4 40
2 45 26
3 47 85
4 41 97
5 87 77
6 57 55
7 55 4
8 73 74
9 6 62
10 32 89
11 33 68
12 65 97
13 80 5
14 26 7
15 95 88
16 29 6
17 50 17
18 93 59
19 47 64
20 11 9
21 57 75
22 19 70
23 95 55
24 3 36
25 87 81
26 15 39
27 25 46
28 22 8
29 76 47
30 80 66
31 36 41
32 50 6
33 83 83
34 27 82
35 45 55
36 40 65
37 17 8
38 60 97
39 48 30
40 81 79
41 35 62
42 27 56
43 44 59
44 27 8
45 94 41
46 27 13
47 26 18
48 82 9
49 79 34
50 83 7
51 28 19
52 67 76
53 72 84
54 79 68
55 40 68
56 21 93
57 9 52
58 53 18
59 84 46
60 89 94
61 74 96
62 59 91
63 51 83
64 61 44
65 80 68
66 90 74
67 98 70
68 72 26
69 94 16
70 64 43
71 18 60
72 74 45
73 33 100
74 65 28
75 59 97
76 61 41
77 18 27
78 60 78
79 15 55
80 57 16
81 94 88
82 67 53
83 76 77
84 76 76
85 21 19
86 93 11
87 41 48
88 36 78
89 99 62
90 27 18
