1 81 60
2 52 18
3 76 35
4 98 9
5 85 70
6 100 6
7 15 24
8 3 58
9 26 51
10 65 67
11 17 77
12 98 93
13 90 12
14 83 5
15 54 45
16 54 47
17 76 9
18 65 51
19 26 52
20 29 37
21 22 26
22 44 40
23 29 90
24 98 7
25 11 79
26 74 2
27 92 21
28 33 66
29 34 27
30 100 62
31 69 94
32 48 55
33 15 90
34 81 59
35 93 82
36 18 7
37 94 92
38 88 63
39 98 17
40 40 38
41 89 8
42 52 28
43 1 47
44 75 41
45 96 20
46 82 30
47 43 7
48 45 90
49 73 1
50 43 44
51 98 91
52 88 70
53 72 91
54 97 12
55 46 59
56 86 99
57 45 6
58 11 36
59 93 26
60 46 82
61 4 38
62 13 80
63 80 87
64 47 65
65 44 87
66 30 85
67 27 51
68 55 8
69 38 97
70 75 95
71 60 75
72 87 65
73 78 99
74 1 94
75 89 28
76 54 85
77 96 81
78 17 64
79 53 48
80 51 17
81 37 51
82 65 43
83 29 33
84 24 27
85 91 35
86 65 6
87 95 27
88 84 38
89 5 66
90 16 53
