1 92 60
2 32 98
3 94 51
4 4 74
5 35 4
6 84 10
7 95 99
8 23 40
9 95 63
10 41 68
11 51 12
12 37 86
13 86 31
14 38 17
15 62 93
16 94 51
17 29 31
18 34 98
19 40 86
20 55 10
21 46 52
22 98 87
23 21 11
24 57 59
25 7 99
26 67 22
27 55 16
28 54 15
29 44 58
30 56 61
31 45 55
32 13 15
33 26 60
34 39 48
35 54 58
36 70 43
37 96 76
38 93 87
39 76 32
40 61 65
41 76 16
42 98 33
43 65 56
44 96 69
45 23 32
46 6 91
47 34 9
48 17 26
49 57 52
50 61 35
51 4 92
52 95 62
53 52 9
54 6 31
55 31 78
56 16 38
57 85 91
58 19 78
59 81 59
60 7 49
61 44 11
62 42 64
63 82 21
64 34 31
65 11 63
66 53 21
67 21 18
68 66 80
69 93 29
70 10 11
71 21 67
72 93 87
73 30 61
74 50 11
75 68 58
76 15 85
77 48 2
78 62 15
79 9 61
80 81 3
81 93 6
82 10 51
83 3 66
84 11 41
85 17 75
86 24 5
87 48 21
88 56 51
89 24 11
90 58 62
