1 4 1
2 91 85
3 97 48
4 86 4
5 9 17
6 97 56
7 74 91
8 16 88
9 67 86
10 60 17
11 69 30
12 77 44
13 71 71
14 89 45
15 9 99
16 9 7
17 77 97
18 20 19
19 37 49
20 32 13
21 53 20
22 3 20
23 89 8
24 37 65
25 84 7
26 67 60
27 36 73
28 17 10
29 40 30
30 45 8
31 77 11
32 80 21
33 12 70
34 52 41
35 7 65
36 9 10
37 98 34
38 38 98
39 40 81
40 88 34
41 70 86
42 93 57
43 99 47
44 4 25
45 84 88
46 26 10
47 67 33
48 86 31
49 67 60
50 91 64
51 93 63
52 34 64
53 59 38
54 93 49
55 78 82
56 88 70
57 21 66
58 39 36
59 5 45
60 76 99
61 1 77
62 69 73
63 39 13
64 13 2
65 71 10
66 35 31
67 98 67
68 67 24
69 17 14
70 48 57
71 71 34
72 91 29
73 94 90
74 94 51
75 8 18
76 14 20
77 54 30
78 98 48
79 68 49
80 86 76
81 17 66
82 65 10
83 38 52
84 8 15
85 18 46
86 73 37
87 3 12
88 96 45
89 20 10
90 38 87
