1 94 1
2 54 64
3 90 86
4 2 20
5 4 98
6 28 93
7 15 25
8 41 1
9 3 76
10 86 6
11 32 62
12 2 66
13 56 69
14 18 49
15 60 65
16 38 2
17 79 34
18 64 77
19 14 65
20 21 98
21 76 13
22 17 55
23 84 31
24 19 20
25 52 17
26 74 80
27 75 57
28 39 76
29 77 18
30 70 20
31 2 62
32 30 17
33 22 51
34 55 49
35 56 98
36 47 32
37 50 36
38 41 17
39 31 76
40 83 62
41 75 6
42 15 13
43 9 5
44 57 34
45 79 46
46 11 48
47 12 33
48 69 90
49 95 55
50 42 57
51 13 18
52 14 50
53 52 11
54 2 1
55 16 93
56 64 67
57 78 46
58 20 90
59 87 62
60 9 11
61 73 46
62 85 18
63 61 86
64 53 51
65 40 53
66 34 4
67 99 9
68 91 66
69 76 80
70 92 54
71 21 67
72 31 53
73 34 46
74 90 33
75 83 40
76 83 56
77 37 15
78 31 42
79 39 84
80 22 5
81 61 52
82 27 22
83 45 8
84 91 67
85 82 91
86 94 54
87 41 37
88 91 15
89 81 17
90 21 85
