1 55 30
2 71 40
3 30 88
4 26 46
5 29 62
6 24 91
7 77 56
8 65 84
9 82 92
10 91 27
11 94 99
12 28 69
13 58 25
14 57 27
15 65 15
16 95 37
17 2 72
18 32 92
19 62 39
20 91 15
21 41 11
22 7 7
23 85 33
24 34 59
25 86 88
26 13 41
27 23 22
28 2 49
29 31 6
30 91 43
31 3 7
32 18 52
33 81 49
34 87 72
35 80 30
36 40 39
37 80 92
38 44 3
39 23 7
40 66 75
41 63 61
42 11 94
43 12 23
44 53 64
45 7 58
46 75 16
47 58 87
48 42 56
49 6 49
50 93 38
51 29 54
52 10 26
53 54 14
54 39 89
55 88 2
56 16 2
57 40 59
58 69 67
59 45 80
60 71 65
