1 55 95
2 31 31
3 39 48
4 80 86
5 80 46
6 96 67
7 42 51
8 95 95
9 14 90
10 49 17
11 7 34
12 89 69
13 63 27
14 16 9
15 96 34
16 64 71
17 22 11
18 24 89
19 96 38
20 27 68
21 41 38
22 36 9
23 39 10
24 28 1
25 11 99
26 100 75
27 41 61
28 20 20
29 58 89
30 11 72
31 58 7
32 25 79
33 53 84
34 80 37
35 49 63
36 13 3
37 30 77
38 28 1
39 52 23
40 96 99
41 22 84
42 79 92
43 73 79
44 33 53
45 4 99
46 73 5
47 91 30
48 46 67
49 54 28
50 91 23
51 70 27
52 51 74
53 23 67
54 91 16
55 85 97
56 3 11
57 15 63
58 54 89
59 64 25
60 45 50
