1 81 60
2 39 93
3 93 57
4 57 75
5 43 97
6 37 43
7 8 46
8 35 11
9 28 71
10 18 21
11 14 99
12 8 60
13 90 19
14 78 32
15 24 85
16 53 33
17 66 41
18 75 3
19 54 76
20 8 82
21 20 70
22 44 45
23 26 38
24 78 53
25 1 92
26 18 85
27 79 90
28 78 95
29 17 36
30 65 54
31 2 27
32 64 29
33 15 21
34 41 43
35 67 92
36 94 86
37 76 73
38 45 16
39 88 32
40 99 5
41 29 1
42 96 90
43 80 93
44 53 86
45 63 29
46 21 80
47 36 99
48 75 23
49 67 4
50 50 95
51 19 78
52 31 78
53 74 51
54 29 10
55 63 55
56 47 38
57 18 7
58 46 88
59 90 14
60 47 17
