1 21 7
2 100 31
3 51 60
4 49 5
5 11 5
6 52 82
7 44 35
8 73 67
9 2 81
10 40 73
11 89 6
12 61 38
13 66 88
14 84 6
15 87 53
16 34 78
17 67 30
18 20 53
19 84 29
20 56 30
21 73 94
22 81 4
23 49 29
24 25 44
25 96 59
26 100 61
27 66 23
28 78 62
29 34 54
30 20 11
31 33 48
32 14 67
33 31 82
34 17 51
35 74 68
36 16 88
37 46 16
38 37 82
39 74 88
40 99 77
41 39 35
42 46 58
43 11 43
44 64 41
45 65 51
46 91 7
47 11 33
48 63 39
49 80 79
50 71 5
51 11 36
52 84 45
53 67 73
54 27 20
55 39 77
56 40 66
57 64 29
58 37 15
59 1 57
60 73 31
