1 12 74
2 6 72
3 88 67
4 78 52
5 20 62
6 100 54
7 53 30
8 69 3
9 10 38
10 42 16
11 23 2
12 73 61
13 48 10
14 75 27
15 83 40
16 62 69
17 36 4
18 48 59
19 81 41
20 59 27
21 60 92
22 36 11
23 34 93
24 71 2
25 68 81
26 78 5
27 58 98
28 26 2
29 53 57
30 27 36
31 13 53
32 33 8
33 43 5
34 9 90
35 44 91
36 47 73
37 16 79
38 96 24
39 58 94
40 52 84
41 16 46
42 99 100
43 91 54
44 50 79
45 88 80
46 58 98
47 3 14
48 66 37
49 26 29
50 58 76
51 75 50
52 72 21
53 24 38
54 54 98
55 32 43
56 7 89
57 57 40
58 4 32
59 58 84
60 28 71
