1 30 30
2 22 65
3 39 71
4 79 90
5 52 11
6 64 4
7 68 17
8 19 88
9 59 42
10 51 73
11 21 11
12 84 66
13 63 34
14 14 24
15 29 6
16 47 9
17 23 75
18 92 78
19 65 53
20 55 75
21 33 55
22 7 51
23 95 39
24 6 99
25 35 30
26 20 26
27 38 96
28 22 43
29 41 70
30 30 95
31 45 74
32 46 24
33 60 53
34 70 66
35 92 65
36 46 97
37 52 30
38 16 24
39 79 2
40 31 7
41 77 49
42 12 61
43 42 14
44 84 87
45 75 44
46 7 73
47 84 49
48 1 47
49 42 88
50 3 5
51 15 50
52 48 92
53 29 3
54 16 69
55 96 2
56 31 31
57 50 30
58 53 27
59 18 38
60 70 32
