1 70 46
2 30 62
3 91 41
4 88 82
5 66 51
6 29 16
7 97 71
8 12 1
9 70 89
10 81 20
11 39 97
12 54 2
13 23 58
14 19 87
15 33 97
16 91 25
17 89 99
18 15 34
19 54 89
20 43 2
21 31 80
22 11 65
23 62 51
24 9 24
25 82 53
26 74 37
27 39 3
28 29 79
29 55 60
30 54 65
31 44 47
32 50 49
33 41 12
34 58 6
35 75 82
36 4 71
37 34 28
38 35 96
39 49 65
40 3 55
41 61 31
42 78 63
43 86 47
44 42 74
45 35 16
46 35 80
47 20 65
48 19 6
49 3 71
50 28 4
51 3 100
52 61 49
53 25 70
54 95 57
55 38 96
56 72 90
57 52 16
58 38 93
59 19 42
60 84 41
