1 27 23
2 99 53
3 48 13
4 60 73
5 73 98
6 71 84
7 88 91
8 31 19
9 39 71
10 9 11
11 68 28
12 16 22
13 46 45
14 78 100
15 97 70
16 30 57
17 4 82
18 32 73
19 81 99
20 52 23
21 23 43
22 92 49
23 91 98
24 19 55
25 55 85
26 55 48
27 63 84
28 28 17
29 38 27
30 95 58
31 92 100
32 57 45
33 47 70
34 93 60
35 49 74
36 95 60
37 73 92
38 74 24
39 9 39
40 82 37
41 5 93
42 51 59
43 88 10
44 66 41
45 19 11
46 90 30
47 98 32
48 67 25
49 95 95
50 85 36
51 11 88
52 65 90
53 35 45
54 41 52
55 31 65
56 85 6
57 89 10
58 72 34
59 89 85
60 6 94
