1 26 47
2 67 78
3 5 77
4 69 19
5 82 32
6 95 34
7 76 85
8 78 8
9 32 54
10 63 65
11 45 84
12 68 50
13 47 60
14 55 72
15 58 5
16 49 21
17 80 66
18 94 47
19 44 41
20 95 19
21 71 41
22 20 54
23 77 61
24 24 29
25 67 40
26 68 72
27 55 77
28 85 42
29 57 6
30 74 95
31 88 73
32 71 42
33 18 34
34 84 2
35 4 5
36 33 50
37 72 93
38 79 77
39 55 48
40 6 37
41 57 21
42 7 14
43 54 26
44 58 93
45 10 63
46 37 56
47 7 85
48 45 70
49 64 97
50 19 23
51 67 46
52 71 64
53 55 5
54 54 81
55 2 2
56 77 92
57 41 3
58 87 89
59 64 90
60 30 2
