1 79 23
2 43 97
3 46 41
4 48 71
5 68 29
6 95 5
7 30 2
8 66 17
9 37 17
10 38 86
11 57 92
12 29 93
13 20 84
14 82 3
15 78 63
16 64 64
17 3 90
18 21 77
19 18 63
20 76 74
21 64 15
22 40 63
23 73 31
24 61 9
25 43 86
26 45 72
27 29 50
28 36 97
29 98 69
30 95 63
31 87 72
32 84 87
33 3 15
34 56 100
35 6 95
36 7 79
37 28 72
38 53 63
39 45 10
40 95 24
41 63 68
42 54 31
43 43 2
44 8 80
45 28 39
46 48 19
47 81 29
48 61 41
49 9 36
50 52 85
51 80 46
52 39 14
53 7 84
54 15 95
55 2 99
56 7 72
57 88 12
58 44 50
59 60 88
60 44 64
