1 90 5
2 31 15
3 28 89
4 65 3
5 18 76
6 74 69
7 44 15
8 46 81
9 58 23
10 60 56
11 93 7
12 32 91
13 70 4
14 99 69
15 14 96
16 98 88
17 46 97
18 14 83
19 64 64
20 45 74
21 88 48
22 85 6
23 65 18
24 45 34
25 17 81
26 16 95
27 48 37
28 16 37
29 63 78
30 2 38
31 24 82
32 98 91
33 4 14
34 22 88
35 59 64
36 52 68
37 85 58
38 34 75
39 63 69
40 55 88
41 74 38
42 86 65
43 91 63
44 26 66
45 13 61
46 44 93
47 58 40
48 54 22
49 90 7
50 22 52
51 69 45
52 37 54
53 27 76
54 37 46
55 53 55
56 41 71
57 70 3
58 65 9
59 19 25
60 67 92
