1 87 78
2 14 55
3 24 78
4 81 91
5 82 57
6 17 48
7 85 46
8 2 10
9 37 17
10 7 51
11 14 85
12 8 39
13 78 26
14 35 49
15 34 75
16 92 89
17 83 14
18 23 35
19 16 73
20 86 81
21 73 92
22 19 20
23 28 54
24 23 34
25 23 23
26 79 18
27 2 20
28 20 32
29 81 57
30 49 82
31 4 67
32 67 44
33 4 40
34 62 14
35 34 22
36 39 10
37 99 69
38 53 19
39 20 29
40 7 84
41 87 23
42 82 49
43 34 14
44 71 51
45 69 43
46 70 81
47 21 96
48 3 92
49 13 94
50 45 80
51 36 77
52 98 24
53 42 68
54 8 7
55 98 79
56 51 93
57 56 63
58 5 3
59 56 55
60 24 39
