1 65 7
2 57 17
3 44 70
4 39 30
5 99 10
6 29 54
7 94 76
8 4 11
9 56 72
10 58 73
11 46 5
12 44 1
13 89 56
14 86 64
15 87 15
16 93 71
17 72 75
18 66 99
19 15 63
20 47 18
21 70 81
22 91 33
23 54 31
24 7 31
25 25 18
26 53 46
27 99 93
28 36 33
29 44 28
30 95 69
31 72 75
32 23 72
33 17 34
34 93 55
35 78 51
36 67 89
37 30 74
38 36 26
39 85 15
40 68 30
41 2 4
42 28 71
43 20 16
44 30 38
45 30 54
46 98 17
47 58 46
48 82 97
49 47 63
50 26 53
51 50 4
52 8 47
53 93 60
54 74 25
55 41 7
56 82 46
57 99 19
58 45 87
59 12 77
60 37 15
