1 36 66
2 85 56
3 20 71
4 37 69
5 70 82
6 16 11
7 75 75
8 9 20
9 79 83
10 74 91
11 34 96
12 61 90
13 62 37
14 78 97
15 38 75
16 70 56
17 61 84
18 75 52
19 28 72
20 18 99
21 73 24
22 18 76
23 5 73
24 66 63
25 70 42
26 47 35
27 10 61
28 54 75
29 28 17
30 93 36
31 13 43
32 3 34
33 77 80
34 90 98
35 14 51
36 29 55
37 60 46
38 92 79
39 58 92
40 81 81
41 99 90
42 19 68
43 60 74
44 76 53
45 84 11
46 94 37
47 50 79
48 59 47
49 64 35
50 17 57
51 18 16
52 67 68
53 55 94
54 29 79
55 81 20
56 14 17
57 65 66
58 4 72
59 64 28
60 75 2
