1 71 32
2 59 32
3 51 35
4 66 54
5 89 7
6 76 83
7 37 33
8 87 94
9 8 89
10 56 39
11 38 53
12 51 44
13 1 3
14 88 71
15 27 34
16 76 40
17 67 17
18 78 13
19 42 24
20 15 38
21 19 62
22 11 80
23 44 26
24 18 4
25 97 9
26 17 49
27 76 4
28 18 75
29 85 2
30 70 94
31 40 49
32 17 85
33 48 58
34 76 98
35 92 20
36 99 47
37 74 38
38 91 9
39 38 25
40 41 99
41 35 62
42 41 75
43 50 88
44 46 16
45 55 5
46 58 35
47 96 64
48 83 81
49 96 40
50 35 71
51 76 21
52 48 23
53 55 57
54 76 24
55 74 83
56 23 8
57 65 39
58 84 70
59 25 41
60 65 4
