1 42 11
2 90 44
3 11 52
4 79 66
5 76 59
6 58 5
7 12 57
8 56 96
9 86 59
10 37 1
11 25 41
12 76 25
13 36 13
14 63 93
15 34 37
16 58 27
17 97 97
18 6 71
19 3 63
20 36 50
21 88 71
22 56 58
23 60 53
24 58 99
25 17 34
26 46 72
27 2 45
28 14 88
29 41 50
30 70 62
31 7 47
32 54 39
33 36 42
34 19 90
35 62 50
36 41 63
37 80 34
38 31 94
39 6 12
40 99 94
41 51 70
42 54 97
43 74 99
44 86 84
45 31 88
46 18 86
47 71 98
48 69 62
49 30 56
50 20 59
51 40 79
52 19 59
53 19 74
54 25 20
55 58 32
56 17 92
57 74 38
58 77 52
59 35 55
60 70 11
