1 75 18
2 58 15
3 21 97
4 74 100
5 57 27
6 23 98
7 12 99
8 53 90
9 84 28
10 39 94
11 67 56
12 28 65
13 47 23
14 85 34
15 5 100
16 64 53
17 95 44
18 100 78
19 7 71
20 64 76
21 63 99
22 69 62
23 4 85
24 65 75
25 91 66
26 23 94
27 60 67
28 37 89
29 85 59
30 48 28
31 76 45
32 10 10
33 65 52
34 14 83
35 5 5
36 92 82
37 40 67
38 5 47
39 74 12
40 27 85
41 88 26
42 71 17
43 34 92
44 34 61
45 59 63
46 93 22
47 99 74
48 85 16
49 72 98
50 49 3
51 22 98
52 82 75
53 47 78
54 5 48
55 63 85
56 51 14
57 29 72
58 13 4
59 84 65
60 42 31
