1 13 37
2 29 6
3 44 90
4 8 19
5 52 60
6 37 65
7 64 95
8 21 22
9 38 27
10 22 89
11 62 61
12 36 73
13 79 41
14 80 46
15 65 11
16 58 49
17 84 70
18 45 57
19 54 78
20 63 65
21 51 71
22 75 23
23 76 55
24 77 64
25 17 51
26 13 68
27 31 43
28 3 7
29 72 17
30 93 88
31 10 21
32 24 82
33 34 57
34 29 16
35 10 26
36 60 30
37 85 26
38 49 96
39 95 46
40 93 69
41 75 40
42 1 80
43 34 26
44 49 49
45 83 95
46 19 23
47 90 83
48 45 6
49 42 83
50 50 100
51 81 40
52 100 28
53 25 33
54 48 33
55 96 62
56 9 48
57 1 57
58 25 31
59 77 19
60 74 34
61 42 16
62 68 38
63 67 47
64 5 94
65 4 87
66 17 6
67 9 33
68 76 7
69 58 57
70 5 62
71 23 4
72 51 43
73 96 16
74 66 4
75 33 34
76 65 20
77 93 68
78 94 1
79 63 61
80 77 55
81 31 61
82 80 7
83 94 18
84 71 41
85 86 17
86 93 88
87 81 73
88 38 22
89 81 84
90 44 64
91 35 86
92 3 95
93 97 96
94 92 56
95 71 80
96 25 20
97 50 49
98 32 55
99 9 12
100 61 31
