1 4 13
2 96 5
3 86 27
4 74 83
5 79 38
6 24 46
7 100 44
8 40 75
9 28 53
10 19 81
11 3 89
12 92 94
13 97 99
14 84 21
15 11 86
16 51 29
17 74 82
18 46 71
19 54 79
20 77 12
21 21 21
22 2 80
23 58 92
24 6 13
25 3 4
26 40 88
27 84 96
28 43 49
29 51 73
30 20 89
31 41 90
32 28 7
33 10 2
34 10 11
35 51 92
36 52 71
37 33 96
38 90 4
39 83 44
40 47 75
41 45 10
42 23 40
43 44 30
44 29 57
45 71 58
46 76 33
47 40 8
48 11 29
49 21 68
50 18 61
51 92 48
52 72 63
53 39 16
54 68 8
55 19 94
56 97 84
57 23 93
58 17 12
59 79 25
60 69 83
61 92 81
62 98 36
63 83 36
64 30 30
65 30 34
66 39 38
67 56 35
68 5 15
69 81 81
70 52 67
71 73 44
72 84 86
73 18 36
74 12 59
75 52 19
76 75 19
77 63 21
78 77 57
79 12 76
80 7 71
81 78 4
82 84 33
83 88 41
84 4 82
85 16 47
86 100 30
87 21 95
88 23 58
89 28 66
90 39 15
91 90 53
92 49 83
93 48 9
94 39 38
95 32 34
96 53 42
97 22 35
98 6 19
99 99 59
100 19 51
