1 66 43
2 67 48
3 35 75
4 36 96
5 76 57
6 3 96
7 91 28
8 55 97
9 36 59
10 22 56
11 83 73
12 56 81
13 27 46
14 13 33
15 86 7
16 90 95
17 6 51
18 64 92
19 9 92
20 3 65
21 5 45
22 69 53
23 15 78
24 18 42
25 94 44
26 88 83
27 31 2
28 88 60
29 8 38
30 85 18
31 90 28
32 100 8
33 32 22
34 10 85
35 62 91
36 51 8
37 54 49
38 55 50
39 26 48
40 78 19
41 77 89
42 74 59
43 19 44
44 64 38
45 93 6
46 59 9
47 43 97
48 88 25
49 25 38
50 78 23
51 33 89
52 53 33
53 21 3
54 83 41
55 87 69
56 69 57
57 23 4
58 74 20
59 66 71
60 2 89
61 88 60
62 28 50
63 41 47
64 80 91
65 81 36
66 87 79
67 22 8
68 71 78
69 18 92
70 20 56
71 32 75
72 13 14
73 85 51
74 27 78
75 57 55
76 9 15
77 14 64
78 27 60
79 49 13
80 96 77
81 13 5
82 95 8
83 95 69
84 60 10
85 74 59
86 69 6
87 54 4
88 21 73
89 36 46
90 9 27
91 41 71
92 83 44
93 5 36
94 32 40
95 94 33
96 43 83
97 46 86
98 100 38
99 87 3
100 62 21
