1 57 3
2 5 60
3 37 29
4 86 76
5 70 91
6 4 35
7 99 90
8 28 49
9 42 67
10 9 2
11 6 66
12 46 36
13 95 41
14 48 89
15 53 30
16 47 60
17 46 11
18 12 91
19 52 63
20 14 72
21 40 37
22 99 42
23 4 54
24 30 83
25 56 52
26 21 10
27 25 98
28 64 12
29 67 66
30 59 92
31 44 19
32 21 36
33 65 90
34 8 40
35 58 95
36 43 74
37 53 76
38 50 76
39 54 7
40 90 59
41 87 63
42 24 38
43 85 85
44 73 40
45 100 38
46 28 29
47 21 87
48 47 85
49 68 12
50 9 84
51 48 67
52 74 9
53 51 5
54 95 46
55 47 79
56 46 98
57 96 45
58 6 54
59 15 72
60 68 64
61 97 79
62 13 47
63 64 16
64 7 94
65 21 97
66 72 77
67 83 24
68 97 32
69 94 71
70 13 38
71 47 4
72 21 50
73 57 97
74 93 2
75 5 5
76 34 51
77 73 64
78 13 73
79 23 89
80 68 77
81 7 24
82 94 54
83 88 14
84 92 28
85 56 77
86 24 19
87 84 18
88 30 92
89 61 73
90 53 4
91 16 33
92 45 1
93 62 23
94 68 12
95 7 96
96 94 75
97 24 20
98 14 25
99 55 87
100 31 6
