1 69 24
2 40 48
3 23 31
4 57 42
5 14 18
6 15 58
7 73 93
8 98 48
9 75 95
10 85 53
11 15 44
12 43 39
13 51 36
14 15 37
15 56 5
16 91 43
17 80 49
18 92 96
19 70 69
20 26 3
21 73 94
22 64 16
23 46 43
24 19 44
25 98 21
26 21 3
27 11 76
28 12 63
29 32 17
30 52 32
31 12 26
32 42 18
33 71 68
34 64 93
35 59 21
36 46 39
37 10 34
38 56 58
39 34 41
40 16 51
41 75 32
42 62 53
43 56 11
44 23 3
45 33 40
46 55 55
47 17 6
48 2 14
49 43 3
50 13 87
51 70 66
52 98 37
53 88 58
54 46 40
55 96 32
56 78 23
57 65 77
58 87 90
59 14 81
60 3 7
61 30 5
62 50 49
63 63 89
64 56 2
65 13 27
66 39 5
67 51 90
68 53 11
69 93 45
70 31 94
71 60 64
72 88 45
73 42 57
74 18 81
75 14 26
76 66 54
77 13 63
78 5 36
79 10 27
80 82 78
81 12 70
82 82 48
83 14 82
84 70 3
85 24 22
86 51 34
87 16 89
88 15 27
89 95 28
90 13 67
91 52 81
92 20 51
93 87 22
94 28 18
95 81 72
96 44 70
97 89 14
98 24 1
99 35 32
100 3 82
