1 84 71
2 4 70
3 12 19
4 83 39
5 49 60
6 50 18
7 15 40
8 17 85
9 59 4
10 11 9
11 99 1
12 43 28
13 25 70
14 5 1
15 33 69
16 43 73
17 73 30
18 62 89
19 84 74
20 25 9
21 2 3
22 73 46
23 4 62
24 59 98
25 92 22
26 6 73
27 68 63
28 76 91
29 88 4
30 85 65
31 86 71
32 25 40
33 27 37
34 34 86
35 70 39
36 94 37
37 43 82
38 74 61
39 63 79
40 3 58
41 32 81
42 98 75
43 37 86
44 39 23
45 76 80
46 90 91
47 49 64
48 76 60
49 30 68
50 22 75
51 59 68
52 43 99
53 72 25
54 7 32
55 11 61
56 57 60
57 18 83
58 13 66
59 78 81
60 27 61
61 95 2
62 42 38
63 71 23
64 4 42
65 82 48
66 72 44
67 5 26
68 10 99
69 6 8
70 62 7
71 30 83
72 25 26
73 9 81
74 14 75
75 28 61
76 25 73
77 70 21
78 3 41
79 69 23
80 2 23
81 97 58
82 70 63
83 29 75
84 28 67
85 75 59
86 74 10
87 70 25
88 95 7
89 76 80
90 8 9
91 90 41
92 12 56
93 40 46
94 77 14
95 25 43
96 59 67
97 9 31
98 41 77
99 16 84
100 18 63
