1 84 2
2 14 63
3 73 63
4 6 85
5 43 83
6 55 10
7 32 63
8 62 77
9 71 17
10 22 56
11 29 49
12 30 52
13 67 97
14 50 12
15 79 42
16 25 9
17 90 4
18 51 25
19 93 54
20 9 76
21 12 38
22 62 24
23 49 40
24 20 14
25 25 95
26 67 71
27 45 71
28 71 20
29 25 34
30 68 25
31 1 9
32 13 48
33 44 60
34 33 14
35 29 98
36 49 48
37 51 31
38 95 32
39 65 78
40 26 3
41 19 62
42 21 39
43 66 92
44 81 92
45 43 54
46 37 72
47 61 25
48 48 62
49 34 27
50 23 74
51 73 38
52 34 8
53 69 68
54 63 35
55 4 30
56 49 70
57 1 98
58 64 42
59 69 5
60 9 42
61 35 42
62 34 44
63 18 45
64 91 90
65 67 11
66 20 28
67 89 14
68 59 90
69 86 9
70 14 12
71 53 52
72 45 69
73 34 40
74 20 41
75 98 100
76 97 65
77 31 32
78 79 8
79 93 27
80 95 99
81 65 74
82 66 75
83 3 72
84 13 56
85 42 64
86 37 18
87 70 3
88 61 81
89 98 72
90 48 73
91 63 78
92 80 90
93 77 13
94 33 9
95 76 32
96 3 86
97 63 30
98 45 91
99 6 63
100 73 97
