1 85 88
2 80 1
3 11 32
4 77 79
5 17 49
6 43 58
7 58 49
8 86 57
9 8 73
10 46 17
11 5 73
12 15 59
13 37 68
14 43 81
15 27 2
16 11 48
17 14 11
18 95 1
19 86 33
20 18 48
21 77 44
22 75 54
23 62 75
24 69 87
25 65 90
26 30 53
27 45 65
28 31 60
29 32 73
30 13 59
31 96 94
32 8 95
33 40 58
34 72 10
35 63 54
36 24 40
37 13 95
38 6 52
39 63 89
40 50 52
41 41 85
42 77 5
43 27 67
44 5 17
45 65 52
46 93 14
47 6 58
48 14 57
49 9 27
50 48 35
51 40 26
52 30 75
53 80 50
54 21 19
55 90 33
56 22 93
57 36 82
58 46 19
59 33 61
60 18 14
61 5 26
62 43 98
63 17 38
64 17 88
65 78 63
66 4 63
67 80 81
68 61 5
69 56 6
70 47 99
71 35 54
72 71 79
73 67 54
74 37 23
75 9 32
76 41 64
77 34 71
78 58 48
79 53 81
80 99 72
81 23 71
82 58 61
83 13 57
84 34 7
85 33 17
86 53 14
87 55 3
88 73 9
89 66 30
90 89 20
91 66 67
92 33 13
93 52 17
94 76 72
95 8 41
96 31 22
97 32 5
98 73 72
99 34 93
100 54 87
