1 8 89
2 81 44
3 64 72
4 89 2
5 66 59
6 11 39
7 52 26
8 86 45
9 36 37
10 50 98
11 22 18
12 72 15
13 19 18
14 14 13
15 8 31
16 48 65
17 58 39
18 82 35
19 68 36
20 59 90
21 96 4
22 68 83
23 80 12
24 38 80
25 4 95
26 45 54
27 96 77
28 16 90
29 60 18
30 40 50
31 62 28
32 95 24
33 16 44
34 84 20
35 98 98
36 86 32
37 95 79
38 32 12
39 46 25
40 99 16
41 75 31
42 36 32
43 73 26
44 10 53
45 25 96
46 91 28
47 43 98
48 76 29
49 4 63
50 38 76
51 45 17
52 29 77
53 25 20
54 25 83
55 91 58
56 15 49
57 81 79
58 43 99
59 73 23
60 7 72
61 33 15
62 11 47
63 75 87
64 77 41
65 58 8
66 31 61
67 63 51
68 34 11
69 64 14
70 9 38
71 28 9
72 15 7
73 66 30
74 24 4
75 84 28
76 49 42
77 22 86
78 77 85
79 51 44
80 77 51
81 33 43
82 94 9
83 75 62
84 41 42
85 9 100
86 85 92
87 28 77
88 25 44
89 92 24
90 80 66
91 61 6
92 70 86
93 44 80
94 18 98
95 29 21
96 45 79
97 97 87
98 97 32
99 66 16
100 77 9
