1 89 12
2 46 52
3 29 6
4 36 68
5 43 26
6 27 10
7 52 55
8 9 56
9 32 65
10 99 96
11 39 73
12 50 30
13 64 81
14 78 74
15 81 47
16 21 37
17 85 83
18 10 75
19 79 2
20 80 5
21 11 28
22 13 74
23 8 93
24 2 74
25 27 19
26 80 84
27 51 17
28 61 46
29 57 14
30 49 52
31 95 22
32 80 38
33 86 55
34 26 76
35 88 41
36 42 55
37 45 97
38 80 35
39 53 36
40 57 74
41 66 66
42 93 21
43 75 51
44 5 39
45 90 9
46 81 98
47 43 80
48 24 69
49 49 78
50 67 65
51 56 46
52 75 77
53 97 13
54 25 30
55 93 95
56 66 10
57 15 35
58 83 2
59 47 3
60 33 82
61 71 69
62 91 91
63 13 87
64 86 47
65 49 58
66 45 26
67 49 44
68 27 60
69 32 2
70 82 78
71 98 85
72 10 61
73 56 8
74 32 3
75 64 98
76 85 75
77 23 52
78 34 88
79 56 9
80 96 19
81 74 50
82 15 25
83 99 63
84 33 16
85 29 48
86 29 77
87 4 24
88 59 38
89 85 17
90 64 78
91 90 69
92 95 48
93 84 65
94 7 26
95 91 13
96 70 55
97 30 66
98 68 3
99 5 37
100 22 88
