1 23 76
2 73 82
3 80 76
4 69 45
5 34 47
6 32 50
7 86 28
8 25 9
9 63 41
10 42 13
11 19 77
12 6 48
13 73 92
14 51 72
15 37 50
16 48 34
17 22 3
18 24 41
19 89 57
20 35 51
21 45 7
22 25 98
23 24 77
24 61 16
25 87 70
26 53 75
27 56 53
28 53 12
29 11 79
30 51 40
31 98 87
32 53 36
33 49 55
34 67 99
35 59 68
36 70 55
37 40 78
38 89 17
39 95 96
40 83 75
41 11 24
42 30 33
43 33 30
44 21 30
45 25 12
46 81 13
47 49 33
48 90 70
49 1 66
50 35 92
51 16 52
52 76 77
53 85 91
54 55 44
55 6 90
56 5 79
57 88 58
58 24 56
59 62 1
60 58 87
61 88 97
62 42 19
63 31 94
64 65 41
65 91 20
66 96 28
67 55 53
68 47 66
69 58 35
70 89 99
71 29 65
72 27 44
73 92 84
74 26 95
75 20 62
76 1 95
77 89 99
78 71 65
79 48 79
80 76 80
81 50 55
82 66 96
83 35 19
84 64 97
85 56 44
86 3 77
87 2 32
88 42 16
89 10 68
90 69 78
91 47 13
92 78 95
93 31 33
94 51 37
95 72 1
96 12 47
97 21 60
98 95 63
99 80 98
100 100 77
