1 94 96
2 3 35
3 89 23
4 28 45
5 93 5
6 68 44
7 97 9
8 72 92
9 54 2
10 14 89
11 38 84
12 56 9
13 3 45
14 46 16
15 75 76
16 30 41
17 5 48
18 11 21
19 14 58
20 26 60
21 55 84
22 88 53
23 28 49
24 38 9
25 51 97
26 66 10
27 59 38
28 69 60
29 11 23
30 64 50
31 69 13
32 48 86
33 62 25
34 27 24
35 61 96
36 91 45
37 97 48
38 73 14
39 61 11
40 46 72
41 82 75
42 20 81
43 60 39
44 84 91
45 30 4
46 52 36
47 25 7
48 60 36
49 43 30
50 70 10
51 62 74
52 39 77
53 13 48
54 91 48
55 55 43
56 74 79
57 79 65
58 14 11
59 54 73
60 60 46
61 60 18
62 47 86
63 33 10
64 39 100
65 37 18
66 4 22
67 12 32
68 75 64
69 6 90
70 51 56
71 36 100
72 87 55
73 89 46
74 29 78
75 19 33
76 49 92
77 16 47
78 28 90
79 51 78
80 45 21
81 49 95
82 26 80
83 70 11
84 96 40
85 99 34
86 2 16
87 90 38
88 44 55
89 78 54
90 88 46
91 96 13
92 93 31
93 26 26
94 13 15
95 2 68
96 32 63
97 2 25
98 80 85
99 65 58
100 91 66
