1 7 66
2 31 73
3 3 82
4 73 62
5 6 19
6 67 44
7 53 56
8 55 82
9 18 27
10 23 22
11 43 35
12 7 47
13 12 59
14 51 56
15 5 83
16 59 95
17 54 59
18 96 78
19 41 16
20 2 60
21 45 31
22 43 74
23 93 90
24 4 1
25 20 34
26 9 80
27 75 18
28 94 47
29 11 99
30 19 80
31 64 72
32 19 59
33 74 49
34 29 21
35 59 28
36 39 97
37 76 37
38 22 41
39 3 98
40 12 8
41 47 94
42 55 10
43 55 90
44 20 12
45 87 90
46 81 75
47 48 76
48 73 22
49 50 12
50 24 35
51 83 67
52 64 58
53 75 40
54 22 9
55 8 14
56 95 80
57 89 59
58 28 30
59 40 4
60 57 39
61 73 62
62 78 45
63 67 82
64 82 26
65 80 75
66 21 32
67 4 86
68 50 52
69 30 94
70 5 21
71 5 78
72 61 27
73 55 36
74 36 43
75 53 10
76 74 54
77 17 94
78 90 73
79 2 83
80 98 41
81 79 22
82 95 99
83 77 37
84 57 21
85 47 8
86 70 99
87 55 33
88 8 80
89 65 81
90 28 28
91 86 64
92 28 12
93 82 23
94 40 20
95 93 72
96 64 67
97 77 88
98 70 8
99 27 79
100 37 31
