1 13 96
2 42 86
3 54 66
4 62 92
5 64 68
6 12 11
7 4 88
8 84 57
9 79 86
10 4 7
11 81 7
12 47 36
13 10 97
14 59 83
15 65 67
16 50 88
17 86 71
18 80 32
19 3 79
20 32 31
21 89 2
22 92 25
23 2 25
24 11 92
25 65 37
26 79 35
27 90 95
28 99 86
29 19 16
30 70 59
31 34 31
32 74 97
33 65 11
34 90 57
35 17 74
36 11 69
37 38 96
38 85 8
39 85 42
40 83 23
41 70 20
42 90 67
43 59 2
44 22 67
45 26 87
46 79 54
47 95 66
48 34 39
49 7 61
50 60 29
51 24 96
52 93 49
53 12 75
54 50 5
55 35 22
56 82 33
57 61 57
58 94 58
59 47 70
60 5 31
61 89 61
62 67 54
63 14 6
64 57 65
65 88 22
66 16 90
67 16 91
68 64 38
69 27 14
70 84 44
71 97 50
72 76 38
73 24 24
74 87 40
75 78 48
76 27 63
77 83 40
78 53 27
79 19 87
80 56 54
81 99 46
82 25 64
83 53 10
84 99 35
85 16 40
86 31 29
87 86 14
88 27 79
89 54 50
90 9 26
91 46 87
92 60 75
93 97 77
94 98 14
95 4 50
96 40 10
97 46 39
98 96 51
99 58 3
100 65 65
