1 15 22
2 13 27
3 1 55
4 22 3
5 66 70
6 70 87
7 87 73
8 82 27
9 26 31
10 54 95
11 17 17
12 71 61
13 32 40
14 93 45
15 67 85
16 85 32
17 65 69
18 27 62
19 19 32
20 77 51
21 63 85
22 18 66
23 4 25
24 58 25
25 93 25
26 32 25
27 5 34
28 55 74
29 94 81
30 81 38
31 31 20
32 32 67
33 71 3
34 24 23
35 46 38
36 77 65
37 61 2
38 33 19
39 62 60
40 50 82
41 61 83
42 23 100
43 98 1
44 86 55
45 13 77
46 42 5
47 100 62
48 78 24
49 51 90
50 25 70
51 18 88
52 3 32
53 23 63
54 11 89
55 54 31
56 22 32
57 57 50
58 18 73
59 68 33
60 41 6
61 5 98
62 88 29
63 48 20
64 33 99
65 40 54
66 91 45
67 38 2
68 22 68
69 23 68
70 84 1
71 36 95
72 29 35
73 21 23
74 49 74
75 49 52
76 83 58
77 5 68
78 76 71
79 13 99
80 96 20
81 88 68
82 24 67
83 72 99
84 94 19
85 53 65
86 29 54
87 29 13
88 15 79
89 14 54
90 88 11
91 41 79
92 68 68
93 61 63
94 100 74
95 99 14
96 59 37
97 62 60
98 66 34
99 56 7
100 72 56
