1 40 32
2 11 61
3 49 11
4 78 83
5 97 69
6 51 43
7 41 26
8 77 16
9 28 52
10 31 83
11 70 87
12 13 25
13 39 69
14 37 74
15 36 4
16 70 22
17 70 81
18 52 67
19 56 73
20 72 88
21 67 91
22 41 45
23 80 71
24 26 92
25 21 38
26 83 93
27 57 38
28 56 28
29 62 84
30 85 90
31 65 86
32 85 55
33 33 39
34 40 14
35 6 19
36 77 62
37 6 73
38 59 48
39 64 53
40 57 35
41 74 61
42 61 18
43 24 73
44 71 38
45 3 25
46 27 24
47 51 78
48 32 15
49 39 100
50 18 94
51 39 51
52 11 89
53 89 9
54 46 53
55 11 40
56 94 96
57 58 41
58 28 91
59 93 50
60 17 4
61 46 60
62 74 64
63 47 47
64 33 66
65 15 12
66 68 83
67 60 79
68 74 80
69 12 45
70 85 40
71 5 2
72 54 56
73 56 52
74 87 27
75 54 25
76 41 98
77 92 16
78 79 80
79 71 64
80 95 5
81 3 72
82 18 31
83 43 11
84 64 73
85 79 83
86 97 66
87 97 12
88 40 23
89 66 20
90 86 14
91 62 60
92 87 26
93 56 69
94 34 21
95 6 4
96 23 53
97 58 37
98 31 66
99 25 60
100 67 36
