1 7 72
2 41 44
3 37 13
4 86 10
5 1 93
6 24 39
7 40 73
8 96 7
9 38 90
10 44 52
11 60 76
12 56 28
13 37 5
14 62 34
15 53 41
16 57 64
17 41 74
18 65 19
19 33 72
20 42 13
21 77 46
22 30 27
23 65 79
24 51 41
25 83 94
26 57 82
27 28 9
28 33 51
29 98 63
30 56 34
31 23 80
32 17 70
33 7 12
34 4 99
35 66 51
36 48 39
37 55 75
38 54 17
39 25 73
40 82 26
41 29 40
42 25 8
43 29 83
44 50 42
45 88 32
46 33 52
47 37 88
48 73 82
49 68 11
50 97 84
51 69 73
52 56 61
53 43 84
54 11 87
55 5 18
56 27 78
57 48 32
58 61 14
59 29 29
60 52 89
61 73 40
62 28 8
63 64 79
64 7 81
65 10 53
66 32 48
67 43 67
68 7 79
69 62 31
70 56 96
71 57 79
72 11 46
73 29 26
74 19 66
75 60 73
76 78 6
77 32 70
78 17 97
79 41 71
80 89 78
81 26 70
82 30 44
83 51 64
84 33 24
85 53 23
86 86 78
87 2 26
88 52 99
89 77 34
90 91 8
91 21 49
92 54 35
93 62 59
94 17 94
95 68 85
96 83 9
97 30 52
98 56 4
99 24 97
100 56 50
