1 63 82
2 60 5
3 34 5
4 27 95
5 27 40
6 66 63
7 69 36
8 2 11
9 5 86
10 23 88
11 64 82
12 65 25
13 13 27
14 66 15
15 91 80
16 42 56
17 10 42
18 69 69
19 16 2
20 15 62
21 98 97
22 10 84
23 47 96
24 94 38
25 31 25
26 42 76
27 6 100
28 92 75
29 31 52
30 82 88
