1 8 57
2 83 76
3 54 82
4 63 17
5 31 21
6 41 97
7 70 86
8 99 38
9 49 2
10 64 41
11 85 65
12 7 20
13 82 7
14 7 6
15 8 77
16 74 15
17 10 88
18 56 7
19 59 45
20 51 5
21 87 78
22 19 16
23 55 29
24 43 22
25 81 90
26 18 67
27 91 57
28 13 35
29 12 85
30 4 19
