1 54 91
2 69 21
3 11 50
4 16 79
5 15 60
6 29 80
7 100 16
8 94 85
9 61 54
10 83 2
11 80 45
12 83 24
13 40 23
14 13 77
15 72 76
16 68 23
17 95 38
18 78 68
19 59 72
20 32 40
21 56 34
22 31 84
23 32 78
24 62 21
25 36 94
26 22 35
27 52 52
28 80 34
29 53 16
30 41 39
