1 24 86
2 89 80
3 27 40
4 68 36
5 56 30
6 49 89
7 65 35
8 25 27
9 38 13
10 44 1
11 87 68
12 7 86
13 93 98
14 70 50
15 8 44
16 75 14
17 74 78
18 10 37
19 6 70
20 34 92
21 46 22
22 71 78
23 73 48
24 86 24
25 79 86
26 61 29
27 59 6
28 99 23
29 62 95
30 49 51
