1 12 69
2 68 53
3 14 54
4 18 81
5 40 21
6 55 38
7 38 12
8 53 40
9 88 47
10 16 59
11 88 48
12 98 5
13 21 77
14 16 81
15 97 87
16 1 50
17 72 37
18 82 87
19 99 67
20 47 43
21 60 11
22 40 94
23 100 16
24 99 32
25 20 55
26 48 19
27 62 10
28 48 4
29 33 87
30 57 14
