1 14 33
2 59 89
3 38 16
4 25 70
5 64 97
6 94 40
7 65 56
8 85 37
9 85 15
10 4 51
11 79 82
12 44 82
13 49 19
14 10 46
15 26 26
16 35 61
17 39 28
18 64 82
19 10 42
20 61 26
21 4 78
22 10 46
23 5 95
24 72 8
25 18 40
26 67 18
27 75 94
28 47 59
29 59 78
30 19 89
