1 80 29
2 64 44
3 98 47
4 48 25
5 36 80
6 66 48
7 38 57
8 90 81
9 93 87
10 27 62
11 94 32
12 14 43
13 9 63
14 65 51
15 14 17
16 18 86
17 19 91
18 52 35
19 35 94
20 60 26
21 17 95
22 4 15
23 24 81
24 58 12
25 44 69
26 83 51
27 16 90
28 99 99
29 90 73
30 26 19
