1 49 62
2 26 36
3 5 45
4 3 90
5 17 11
6 39 85
7 26 85
8 42 78
9 71 77
10 72 93
11 13 59
12 100 19
13 55 70
14 2 66
15 69 98
16 49 80
17 6 24
18 73 3
19 82 98
20 43 96
21 40 54
22 55 45
23 63 92
24 74 96
25 44 68
26 3 2
27 97 2
28 43 3
29 89 45
30 23 19
