1 67 52
2 67 46
3 80 89
4 95 24
5 33 67
6 85 100
7 12 60
8 47 100
9 33 6
10 68 15
11 9 58
12 59 30
13 77 61
14 64 60
15 18 73
16 72 66
17 96 77
18 30 91
19 89 96
20 87 83
21 12 40
22 68 42
23 6 35
24 13 56
25 20 22
26 75 76
27 20 99
28 18 86
29 85 97
30 2 5
