1 3 79
2 66 67
3 80 25
4 4 93
5 92 90
6 61 63
7 48 77
8 16 53
9 26 61
10 30 46
11 37 86
12 98 30
13 33 96
14 59 48
15 77 71
16 87 63
17 57 74
18 79 80
19 33 55
20 55 94
21 4 10
22 77 94
23 5 65
24 28 12
25 92 76
26 22 14
27 45 89
28 19 62
29 32 95
30 98 22
