1 27 65
2 71 55
3 47 34
4 59 66
5 15 47
6 99 3
7 31 10
8 16 31
9 56 10
10 77 89
11 55 61
12 77 52
13 23 73
14 35 50
15 31 91
16 3 37
17 43 2
18 38 26
19 20 78
20 96 68
21 85 48
22 37 16
23 65 51
24 65 34
25 55 74
26 30 94
27 52 39
28 83 33
29 100 22
30 32 90
