1 63 49
2 75 64
3 89 5
4 37 92
5 73 32
6 56 24
7 39 56
8 10 14
9 27 85
10 34 20
11 9 31
12 74 29
13 8 2
14 11 34
15 100 69
16 67 69
17 3 73
18 37 4
19 15 35
20 15 5
21 40 79
22 74 57
23 42 27
24 95 65
25 46 30
26 57 11
27 74 56
28 15 11
29 2 66
30 76 27
