1 49 20
2 1 93
3 15 90
4 82 84
5 6 25
6 54 41
7 12 92
8 46 23
9 65 20
10 67 86
11 91 87
12 26 94
13 92 68
14 42 36
15 6 90
16 53 72
17 73 2
18 50 95
19 80 16
20 30 26
21 72 18
22 15 26
23 31 8
24 18 57
25 10 55
26 5 66
27 2 51
28 37 9
29 56 26
30 39 20
