1 18 3
2 80 84
3 25 4
4 28 46
5 59 35
6 47 90
7 77 34
8 62 2
9 26 26
10 54 92
11 18 47
12 23 11
13 38 14
14 72 21
15 13 54
16 44 75
17 88 42
18 19 80
19 71 47
20 76 58
21 40 52
22 75 98
23 8 28
24 10 19
25 41 44
26 18 28
27 5 91
28 9 96
29 50 91
30 59 29
