1 78 39
2 47 57
3 71 24
4 55 9
5 4 17
6 58 11
7 13 7
8 35 32
9 15 32
10 71 63
11 46 8
12 92 80
13 85 34
14 42 63
15 6 96
16 2 98
17 83 99
18 96 43
19 27 52
20 61 68
21 36 41
22 22 84
23 66 8
24 81 46
25 6 76
26 47 39
27 33 42
28 85 66
29 78 60
30 57 12
