1 97 50
2 41 94
3 99 11
4 83 45
5 77 100
6 21 100
7 56 4
8 64 85
9 19 58
10 3 81
11 46 82
12 38 56
13 50 51
14 70 92
15 97 83
16 46 94
17 94 40
18 72 4
19 57 90
20 42 4
21 23 42
22 46 27
23 12 94
24 27 69
25 31 20
26 56 7
27 5 13
28 85 28
29 20 32
30 44 75
