1 28 89
2 68 93
3 19 18
4 7 17
5 13 22
6 18 56
7 30 8
8 40 90
9 3 9
10 14 19
11 33 91
12 88 95
13 85 22
14 31 83
15 48 58
16 57 98
17 10 65
18 9 71
19 90 9
20 75 8
21 65 27
22 98 77
23 19 40
24 52 5
25 83 92
26 28 88
27 81 86
28 43 42
29 40 15
30 70 59
