1 60 79
2 89 89
3 45 31
4 6 64
5 59 45
6 93 30
7 15 4
8 86 5
9 49 78
10 74 51
11 19 2
12 10 24
13 89 60
14 32 50
15 79 23
16 99 3
17 81 52
18 73 15
19 11 99
20 33 79
21 21 47
22 80 19
23 25 80
24 10 25
25 62 73
26 89 84
27 57 61
28 45 86
29 97 65
30 85 5
