1 83 92
2 66 25
3 3 91
4 57 16
5 66 99
6 92 41
7 50 95
8 76 28
9 13 40
10 70 18
11 97 30
12 36 95
13 72 53
14 99 80
15 62 39
16 3 11
17 7 60
18 7 4
19 90 94
20 27 16
21 78 92
22 42 86
23 5 56
24 61 76
25 50 87
26 6 8
27 58 96
28 76 5
29 6 44
30 68 32
