1 59 17
2 41 44
3 55 83
4 1 36
5 25 45
6 70 50
7 57 2
8 13 60
9 84 38
10 80 51
11 81 93
12 8 96
13 42 94
14 40 37
15 55 88
16 39 38
17 44 94
18 39 58
19 80 18
20 27 97
21 42 27
22 4 61
23 40 66
24 85 18
25 57 75
26 37 72
27 34 97
28 64 43
29 66 67
30 69 57
31 12 28
32 6 57
33 97 90
34 17 34
35 26 78
36 11 75
37 41 67
38 53 51
39 98 75
40 20 10
