1 26 83
2 50 83
3 57 28
4 69 69
5 89 18
6 49 10
7 22 87
8 69 93
9 56 71
10 35 11
11 61 89
12 59 60
13 68 22
14 35 7
15 8 54
16 26 66
17 67 72
18 72 49
19 68 90
20 51 41
21 47 73
22 84 44
23 37 55
24 35 61
25 29 12
26 68 49
27 26 72
28 45 22
29 44 59
30 19 25
31 99 11
32 69 69
33 24 88
34 98 48
35 32 32
36 82 3
37 16 47
38 10 93
39 67 96
40 25 26
