1 29 19
2 85 15
3 71 13
4 85 43
5 97 33
6 17 74
7 86 18
8 13 38
9 40 43
10 28 63
11 26 80
12 87 9
13 16 29
14 92 8
15 50 92
16 22 26
17 87 79
18 23 42
19 67 3
20 37 47
21 26 68
22 39 78
23 9 14
24 44 70
25 31 90
26 60 52
27 99 55
28 37 62
29 69 63
30 98 25
31 48 18
32 94 41
33 13 89
34 74 50
35 51 42
36 4 21
37 4 82
38 40 2
39 7 78
40 83 25
