1 20 54
2 13 66
3 39 8
4 31 60
5 62 65
6 26 92
7 40 17
8 74 43
9 48 38
10 90 13
11 25 51
12 46 8
13 20 33
14 69 19
15 86 15
16 53 57
17 64 84
18 61 100
19 84 40
20 80 90
21 50 2
22 3 54
23 24 25
24 85 85
25 67 34
26 74 46
27 66 19
28 26 46
29 92 94
30 33 40
31 36 87
32 81 14
33 52 46
34 38 90
35 54 25
36 100 37
37 13 54
38 10 93
39 73 39
40 56 9
