1 55 73
2 60 77
3 18 85
4 87 95
5 81 97
6 59 94
7 32 31
8 32 86
9 51 32
10 35 32
11 46 54
12 23 61
13 6 57
14 4 42
15 98 58
16 93 78
17 96 44
18 88 69
19 13 3
20 83 94
21 44 70
22 44 77
23 15 53
24 64 73
25 4 14
26 92 43
27 57 4
28 86 60
29 56 1
30 69 7
31 61 59
32 33 15
33 94 20
34 88 91
35 68 79
36 86 10
37 40 94
38 17 79
39 1 84
40 11 90
