1 16 13
2 12 4
3 25 34
4 38 25
5 52 13
6 16 58
7 13 45
8 75 14
9 42 91
10 94 25
11 70 98
12 44 92
13 17 9
14 82 54
15 88 91
16 51 52
17 81 27
18 67 44
19 78 66
20 31 12
21 17 89
22 67 18
23 40 15
24 24 76
25 4 51
26 16 64
27 38 52
28 73 63
29 55 84
30 61 43
31 89 45
32 29 84
33 62 43
34 75 49
35 66 5
36 63 93
37 51 82
38 82 41
39 11 47
40 1 96
