1 38 14
2 80 55
3 87 28
4 16 3
5 91 35
6 59 23
7 71 96
8 90 2
9 41 19
10 17 20
11 94 41
12 81 87
13 27 51
14 58 28
15 98 49
16 68 83
17 13 68
18 10 87
19 25 26
20 46 69
21 42 77
22 39 19
23 31 48
24 60 97
25 7 45
26 94 17
27 11 82
28 43 64
29 36 53
30 52 5
31 40 69
32 73 41
33 84 5
34 78 49
35 29 64
36 42 77
37 48 4
38 4 37
39 80 46
40 33 55
