1 80 5
2 33 68
3 87 50
4 57 50
5 76 80
6 78 18
7 61 30
8 35 3
9 47 22
10 75 36
11 73 11
12 67 73
13 28 7
14 31 76
15 38 46
16 23 93
17 23 21
18 87 99
19 2 99
20 87 49
21 38 62
22 22 82
23 32 85
24 71 64
25 24 99
26 52 77
27 23 54
28 29 50
29 36 1
30 68 49
31 4 55
32 85 14
33 8 20
34 62 58
35 73 53
36 82 28
37 28 47
38 79 20
39 32 10
40 29 70
