1 32 43
2 47 21
3 16 97
4 49 74
5 4 13
6 96 49
7 32 64
8 78 84
9 14 52
10 98 98
11 55 45
12 64 91
13 48 38
14 16 11
15 85 84
16 44 65
17 45 7
18 88 99
19 63 20
20 45 22
21 74 7
22 88 6
23 8 58
24 40 50
25 36 11
26 74 15
27 70 24
28 12 20
29 70 92
30 70 34
31 98 67
32 40 30
33 71 62
34 49 32
35 16 27
36 85 39
37 27 66
38 33 47
39 5 70
40 1 49
