1 4 89
2 33 51
3 41 17
4 59 56
5 56 59
6 55 48
7 92 50
8 71 69
9 97 81
10 77 33
11 27 54
12 17 11
13 91 98
14 64 38
15 65 14
16 15 5
17 15 35
18 95 68
19 75 76
20 57 66
21 32 50
22 11 52
23 17 32
24 68 36
25 3 47
26 75 58
27 90 61
28 67 74
29 77 53
30 53 74
31 99 40
32 51 25
33 30 52
34 90 48
35 36 8
36 86 34
37 80 90
38 18 91
39 57 98
40 14 38
