1 30 83
2 72 65
3 48 43
4 80 82
5 46 68
6 29 9
7 98 51
8 44 15
9 18 42
10 68 33
11 44 35
12 14 89
13 82 31
14 97 40
15 94 9
16 22 97
17 22 33
18 76 91
19 46 34
20 11 6
21 52 67
22 64 60
23 23 10
24 90 89
25 13 87
26 81 49
27 28 5
28 6 39
29 77 53
30 84 64
31 7 75
32 16 10
33 78 74
34 53 62
35 27 28
36 84 51
37 34 6
38 84 47
39 62 51
40 91 85
