1 48 37
2 60 44
3 100 39
4 65 9
5 7 6
6 61 5
7 87 3
8 97 62
9 54 49
10 16 22
11 58 25
12 31 35
13 99 7
14 27 44
15 7 93
16 5 13
17 54 16
18 59 41
19 34 85
20 46 35
21 43 89
22 15 77
23 11 76
24 51 49
25 23 51
26 25 57
27 59 9
28 76 34
29 20 39
30 40 27
31 38 26
32 40 85
33 68 68
34 48 38
35 44 62
36 47 64
37 78 53
38 94 79
39 31 4
40 14 5
