1 26 99
2 48 45
3 39 26
4 35 21
5 99 73
6 4 50
7 83 71
8 77 85
9 9 74
10 93 67
11 57 91
12 30 2
13 47 6
14 52 73
15 5 45
16 30 82
17 71 95
18 90 20
19 95 26
20 80 66
21 33 6
22 97 44
23 16 94
24 54 97
25 21 85
26 51 30
27 70 67
28 7 75
29 27 3
30 38 38
31 95 77
32 13 64
33 9 29
34 95 96
35 87 93
36 2 64
37 77 92
38 58 56
39 41 97
40 21 47
