1 38 81
2 37 12
3 93 90
4 48 62
5 4 34
6 15 7
7 30 3
8 91 60
9 44 75
10 4 93
11 28 84
12 78 24
13 4 82
14 42 61
15 14 71
16 53 83
17 12 91
18 48 64
19 78 26
20 36 45
21 39 24
22 48 56
23 84 94
24 60 97
25 70 75
26 9 74
27 3 28
28 8 85
29 86 65
30 87 94
31 42 61
32 71 43
33 60 49
34 96 53
35 9 59
36 16 91
37 63 96
38 70 17
39 66 22
40 64 99
