1 98 30
2 2 98
3 75 60
4 69 92
5 94 33
6 55 35
7 37 99
8 71 35
9 85 26
10 33 71
11 90 51
12 84 67
13 49 32
14 86 3
15 92 16
16 2 19
17 74 60
18 62 60
19 57 28
20 81 33
21 65 88
22 70 88
23 25 59
24 28 32
25 59 96
26 75 81
27 38 91
28 84 34
29 67 67
30 93 94
31 27 43
32 37 37
33 14 51
34 3 6
35 19 70
36 32 72
37 96 88
38 70 42
39 45 18
40 8 9
