1 93 36
2 64 90
3 13 93
4 5 58
5 38 24
6 6 54
7 32 60
8 49 31
9 84 30
10 29 35
11 38 25
12 47 67
13 91 66
14 34 4
15 82 18
16 26 13
17 22 44
18 94 30
19 91 74
20 72 54
21 76 70
22 55 84
23 47 58
24 35 5
25 42 13
26 42 5
27 95 65
28 42 52
29 45 25
30 85 21
31 58 72
32 31 65
33 27 32
34 59 55
35 59 62
36 92 70
37 24 86
38 28 63
39 65 100
40 23 81
