1 57 31
2 37 26
3 19 63
4 1 3
5 23 21
6 2 29
7 88 86
8 12 94
9 85 97
10 35 67
11 7 29
12 41 12
13 79 68
14 88 39
15 90 70
16 33 68
17 42 86
18 98 61
19 29 49
20 77 98
21 60 24
22 52 55
23 3 89
24 11 56
25 72 63
26 22 55
27 65 49
28 79 29
29 31 98
30 55 26
31 95 80
32 68 59
33 37 49
34 35 89
35 8 96
36 82 80
37 26 87
38 97 73
39 17 58
40 2 69
41 25 80
42 14 60
43 82 68
44 94 2
45 65 37
46 35 59
47 98 78
48 88 32
49 64 75
50 96 83
51 59 12
52 15 76
53 63 2
54 90 45
55 73 96
56 2 10
57 36 94
58 94 56
59 60 9
60 42 83
61 46 12
62 66 53
63 85 33
64 19 42
65 85 3
66 2 20
67 79 34
68 90 64
69 58 34
70 53 34
71 4 35
72 41 9
73 38 32
74 12 22
75 89 21
76 96 79
77 80 32
78 50 24
79 33 39
80 97 95
81 6 45
82 30 77
83 56 25
84 39 77
85 37 32
86 70 9
87 28 34
88 67 51
89 6 96
90 81 36
91 51 84
92 45 51
93 15 82
94 56 89
95 7 21
96 80 53
97 68 94
98 29 39
99 66 80
100 8 4
