1 18 16
2 66 99
3 60 21
4 71 73
5 6 55
6 47 72
7 68 90
8 65 55
9 80 51
10 48 15
11 35 88
12 17 42
13 66 46
14 30 9
15 41 12
16 22 85
17 85 40
18 78 15
19 30 32
20 68 29
21 1 75
22 75 73
23 30 26
24 34 3
25 21 22
26 30 5
27 39 24
28 52 39
29 64 77
30 72 27
31 73 68
32 33 93
33 89 88
34 12 87
35 74 82
36 56 83
37 85 71
38 52 4
39 84 53
40 18 36
41 23 54
42 80 20
43 78 31
44 45 48
45 75 27
46 2 73
47 63 34
48 70 62
49 91 8
50 53 77
51 37 68
52 71 52
53 41 21
54 70 10
55 10 64
56 68 20
57 17 83
58 20 20
59 90 21
60 89 11
61 100 9
62 91 47
63 34 63
64 95 34
65 89 21
66 56 49
67 50 14
68 67 1
69 90 79
70 86 46
71 74 76
72 55 71
73 73 24
74 36 73
75 5 30
76 96 20
77 84 20
78 83 52
79 1 38
80 84 3
81 26 29
82 42 69
83 39 71
84 11 50
85 98 80
86 25 65
87 37 36
88 63 63
89 4 64
90 80 46
91 41 25
92 92 23
93 11 33
94 83 95
95 67 71
96 31 17
97 82 13
98 93 8
99 18 22
100 86 74
