1 74 20
2 53 83
3 50 86
4 86 56
5 92 14
6 16 13
7 72 97
8 83 72
9 22 20
10 64 23
11 2 60
12 73 89
13 68 13
14 95 71
15 19 59
16 20 44
17 41 24
18 42 70
19 59 71
20 32 99
21 78 60
22 29 12
23 30 32
24 53 82
25 37 27
26 97 15
27 74 19
28 8 33
29 52 67
30 81 73
31 12 51
32 18 63
33 46 18
34 51 31
35 34 91
36 76 36
37 13 70
38 25 59
39 64 72
40 86 47
41 53 49
42 35 46
43 78 28
44 60 24
45 83 2
46 58 8
47 91 36
48 82 41
49 98 97
50 12 98
51 5 82
52 37 39
53 3 47
54 13 49
55 16 26
56 92 63
57 97 25
58 88 2
59 88 85
60 55 14
61 39 11
62 68 71
63 91 34
64 80 3
65 48 41
66 22 8
67 90 8
68 46 34
69 96 75
70 67 79
71 15 25
72 96 83
73 43 68
74 39 67
75 72 21
76 35 3
77 36 66
78 22 63
79 38 92
80 93 27
81 84 2
82 43 94
83 4 60
84 54 100
85 81 15
86 31 53
87 82 31
88 38 13
89 97 73
90 31 31
91 84 88
92 56 48
93 34 18
94 90 86
95 49 87
96 21 44
97 39 12
98 3 3
99 45 59
100 24 70
