1 70 80
2 18 77
3 19 97
4 11 79
5 20 1
6 71 7
7 60 85
8 21 27
9 81 12
10 35 73
11 52 42
12 15 46
13 11 81
14 10 57
15 3 8
16 93 6
17 8 96
18 53 33
19 45 11
20 87 36
21 90 64
22 72 90
23 79 34
24 87 61
25 18 29
26 79 63
27 88 83
28 28 31
29 80 95
30 13 72
31 7 67
32 40 68
33 58 71
34 18 79
35 54 98
36 61 35
37 32 18
38 90 57
39 38 97
40 17 3
41 66 15
42 83 65
43 8 16
44 50 37
45 46 38
46 78 49
47 78 68
48 30 5
49 82 45
50 15 37
51 18 77
52 9 73
53 79 84
54 82 64
55 91 36
56 49 46
57 60 2
58 83 2
59 73 71
60 14 89
61 62 71
62 47 94
63 18 34
64 14 87
65 83 39
66 11 25
67 93 92
68 21 2
69 7 64
70 70 71
71 84 37
72 44 44
73 72 94
74 79 92
75 42 8
76 69 63
77 23 37
78 21 22
79 16 20
80 56 45
81 3 48
82 41 70
83 35 16
84 5 23
85 29 38
86 42 41
87 52 20
88 74 99
89 15 82
90 36 66
91 59 12
92 81 88
93 64 52
94 70 45
95 54 5
96 40 57
97 25 49
98 3 98
99 81 48
100 82 92
