1 22 63
2 86 45
3 23 72
4 80 24
5 38 64
6 23 67
7 22 87
8 62 95
9 68 58
10 30 31
11 97 88
12 12 7
13 5 64
14 72 93
15 34 43
16 45 44
17 7 63
18 39 92
19 90 64
20 60 97
21 28 9
22 6 74
23 9 77
24 32 99
25 10 61
26 51 39
27 86 4
28 58 75
29 34 21
30 39 93
31 10 56
32 71 99
33 35 85
34 60 20
35 55 48
36 20 74
37 87 8
38 45 55
39 43 14
40 98 14
41 36 78
42 27 83
43 66 41
44 55 43
45 8 15
46 74 43
47 70 18
48 49 10
49 73 59
50 88 42
51 2 89
52 80 9
53 77 96
54 57 86
55 21 32
56 75 16
57 31 80
58 76 30
59 68 31
60 34 40
61 59 72
62 27 21
63 6 78
64 51 81
65 26 93
66 25 73
67 9 86
68 84 9
69 4 90
70 24 49
71 29 98
72 93 41
73 22 12
74 86 46
75 15 32
76 44 51
77 64 95
78 13 7
79 98 18
80 66 74
81 40 72
82 39 34
83 42 59
84 83 33
85 9 82
86 92 23
87 44 6
88 99 73
89 74 98
90 7 1
91 18 34
92 45 12
93 35 66
94 11 84
95 23 42
96 97 100
97 3 60
98 65 46
99 60 61
100 51 96
