1 79 39
2 48 82
3 61 35
4 66 9
5 54 4
6 24 53
7 75 77
8 7 41
9 41 67
10 54 95
11 15 30
12 18 69
13 81 50
14 56 64
15 27 27
16 69 59
17 45 47
18 19 47
19 67 38
20 42 11
21 10 98
22 16 47
23 61 86
24 63 47
25 97 65
26 71 72
27 27 85
28 8 9
29 85 16
30 95 46
31 57 80
32 59 71
33 63 31
34 73 19
35 68 10
36 39 63
37 68 20
38 26 2
39 9 75
40 91 9
41 75 42
42 27 10
43 35 26
44 33 68
45 48 50
46 84 12
47 41 51
48 69 8
49 56 42
50 86 6
51 61 89
52 66 67
53 53 24
54 7 91
55 23 52
56 91 51
57 19 87
58 74 68
59 78 55
60 12 24
61 63 1
62 5 38
63 78 61
64 57 21
65 89 9
66 92 22
67 31 44
68 47 76
69 26 47
70 73 92
71 100 53
72 78 56
73 14 71
74 35 15
75 88 3
76 72 7
77 64 93
78 6 2
79 61 63
80 93 19
81 70 39
82 96 83
83 55 69
84 20 98
85 91 5
86 7 83
87 28 44
88 81 55
89 86 38
90 93 15
91 86 30
92 64 2
93 24 32
94 3 84
95 71 34
96 69 60
97 45 19
98 66 9
99 100 87
100 40 93
