1 26 3
2 54 49
3 93 87
4 25 9
5 60 75
6 53 97
7 20 56
8 95 22
9 95 11
10 17 6
11 82 86
12 28 11
13 68 47
14 100 97
15 14 56
16 68 24
17 3 21
18 73 30
19 66 47
20 52 89
21 86 35
22 19 70
23 69 70
24 48 5
25 15 35
26 10 91
27 55 95
28 58 37
29 95 94
30 34 72
31 39 98
32 75 29
33 10 27
34 92 22
35 69 22
36 15 28
37 44 86
38 54 3
39 39 39
40 98 19
41 82 9
42 77 77
43 55 44
44 10 74
45 56 38
46 88 64
47 71 44
48 98 18
49 65 89
50 27 3
51 92 68
52 64 93
53 49 7
54 54 34
55 28 88
56 89 57
57 35 41
58 19 93
59 16 53
60 43 69
61 38 42
62 91 17
63 8 31
64 40 12
65 29 58
66 59 56
67 16 72
68 69 11
69 58 50
70 77 12
71 26 75
72 80 68
73 53 20
74 96 73
75 62 74
76 34 20
77 68 51
78 36 75
79 31 32
80 17 86
81 99 57
82 34 65
83 10 48
84 12 53
85 68 49
86 51 82
87 13 82
88 44 56
89 56 11
90 41 53
91 12 84
92 72 80
93 13 87
94 80 90
95 18 42
96 59 69
97 19 92
98 65 19
99 34 38
100 91 51
