1 91 4
2 53 59
3 87 76
4 100 86
5 31 7
6 39 40
7 71 37
8 24 71
9 70 94
10 83 14
11 32 15
12 19 93
13 23 94
14 100 61
15 55 50
16 62 19
17 71 86
18 51 83
19 92 55
20 27 97
21 74 96
22 78 98
23 41 62
24 43 68
25 25 95
26 99 67
27 93 78
28 22 86
29 86 15
30 61 17
31 49 60
32 46 58
33 80 73
34 63 87
35 83 92
36 20 89
37 39 17
38 35 85
39 84 88
40 78 49
41 23 70
42 83 53
43 48 94
44 68 40
45 99 1
46 95 46
47 41 14
48 82 86
49 82 97
50 14 26
51 22 35
52 61 35
53 39 57
54 62 69
55 22 83
56 55 62
57 49 90
58 41 78
59 100 76
60 50 2
61 42 32
62 88 20
63 46 92
64 55 78
65 82 70
66 91 59
67 56 58
68 54 58
69 24 87
70 76 20
71 64 41
72 17 8
73 27 8
74 46 52
75 46 60
76 75 73
77 37 66
78 89 11
79 70 4
80 63 59
81 24 83
82 51 46
83 27 64
84 13 35
85 88 54
86 61 14
87 12 84
88 19 39
89 23 52
90 33 88
91 70 15
92 68 8
93 47 41
94 15 94
95 8 84
96 22 10
97 94 5
98 12 52
99 67 84
100 68 96
