1 8 100
2 51 39
3 26 53
4 38 49
5 75 92
6 89 86
7 72 25
8 71 69
9 60 77
10 80 4
11 85 72
12 6 12
13 67 46
14 25 49
15 15 87
16 52 84
17 48 15
18 71 96
19 68 46
20 83 70
21 42 95
22 87 32
23 37 39
24 37 27
25 80 88
26 88 56
27 77 21
28 74 94
29 52 85
30 33 1
31 61 65
32 10 26
33 32 80
34 79 62
35 83 37
36 94 16
37 71 99
38 6 43
39 34 77
40 71 54
41 54 38
42 90 6
43 36 95
44 84 86
45 9 16
46 57 38
47 39 80
48 57 86
49 89 39
50 80 41
51 81 17
52 27 44
53 17 76
54 54 13
55 10 25
56 46 62
57 80 53
58 28 58
59 68 2
60 50 72
61 8 47
62 92 6
63 41 80
64 75 51
65 88 7
66 47 39
67 65 2
68 51 65
69 67 77
70 11 35
71 2 92
72 50 13
73 98 41
74 4 23
75 71 70
76 99 88
77 62 67
78 98 51
79 49 44
80 59 58
81 39 78
82 19 67
83 28 38
84 56 43
85 57 28
86 15 10
87 38 22
88 85 19
89 88 85
90 90 12
91 34 62
92 78 27
93 24 43
94 97 25
95 37 75
96 20 100
97 92 30
98 98 40
99 53 99
100 42 96
