1 67 71
2 15 63
3 99 36
4 51 89
5 11 37
6 40 92
7 84 3
8 85 12
9 80 60
10 41 53
11 52 94
12 76 82
13 24 21
14 25 4
15 13 35
16 100 20
17 23 51
18 47 5
19 80 95
20 11 85
21 51 75
22 2 74
23 10 85
24 45 39
25 88 64
26 62 54
27 92 69
28 5 19
29 97 93
30 84 92
31 18 77
32 92 26
33 67 30
34 83 36
35 95 47
36 8 20
37 18 11
38 57 32
39 37 64
40 17 36
41 60 53
42 87 50
43 9 24
44 73 3
45 33 66
46 91 10
47 34 97
48 7 84
49 87 76
50 43 21
51 75 22
52 74 24
53 43 67
54 54 46
55 58 87
56 74 9
57 3 37
58 21 59
59 76 53
60 19 42
61 35 52
62 27 33
63 49 63
64 74 30
65 9 36
66 12 28
67 42 80
68 58 81
69 100 49
70 9 94
71 55 36
72 7 18
73 62 97
74 32 99
75 64 81
76 98 95
77 46 44
78 38 47
79 40 64
80 41 49
81 96 34
82 41 26
83 10 10
84 20 29
85 6 38
86 99 64
87 99 15
88 18 74
89 26 2
90 53 94
91 30 59
92 82 78
93 52 13
94 38 37
95 73 23
96 69 79
97 60 72
98 49 91
99 79 25
100 40 56
