1 67 20
2 93 40
3 60 79
4 42 71
5 53 68
6 83 84
7 20 5
8 93 10
9 35 27
10 19 73
11 67 28
12 37 28
13 59 23
14 13 90
15 77 20
16 58 80
17 54 99
18 39 2
19 4 87
20 46 61
21 36 8
22 63 55
23 58 19
24 59 21
25 70 7
26 38 100
27 60 41
28 54 87
29 2 77
30 60 21
31 49 92
32 68 99
33 48 53
34 90 70
35 51 2
36 70 63
37 50 53
38 33 36
39 19 88
40 79 5
41 88 42
42 78 99
43 27 68
44 34 50
45 64 86
46 16 21
47 30 75
48 30 9
49 37 38
50 96 27
51 87 94
52 27 73
53 31 21
54 69 23
55 48 6
56 5 32
57 98 30
58 71 4
59 95 45
60 92 89
61 51 54
62 87 86
63 59 75
64 54 5
65 49 92
66 70 55
67 87 65
68 40 42
69 55 3
70 15 11
71 80 89
72 2 29
73 50 48
74 14 46
75 87 36
76 63 31
77 12 63
78 53 16
79 69 24
80 63 40
81 56 31
82 90 40
83 18 42
84 50 70
85 42 73
86 79 1
87 41 87
88 52 72
89 33 50
90 67 64
91 13 32
92 96 54
93 33 76
94 53 10
95 79 84
96 98 19
97 67 48
98 4 72
99 33 80
100 15 15
