1 11 4
2 10 49
3 82 1
4 24 61
5 44 15
6 84 53
7 14 99
8 76 73
9 60 42
10 89 47
11 88 40
12 58 52
13 73 95
14 24 45
15 36 17
16 17 43
17 76 17
18 3 76
19 53 95
20 8 38
21 29 9
22 74 29
23 70 94
24 39 29
25 13 71
26 4 5
27 91 78
28 86 63
29 45 57
30 17 85
31 87 69
32 71 23
33 61 33
34 7 16
35 60 68
36 93 7
37 51 56
38 2 94
39 60 82
40 37 31
41 67 68
42 97 78
43 74 77
44 30 43
45 86 92
46 55 3
47 71 35
48 68 39
49 41 50
50 50 5
51 14 17
52 9 8
53 10 89
54 97 76
55 29 57
56 15 73
57 69 20
58 33 12
59 41 52
60 71 59
61 14 69
62 53 75
63 76 69
64 59 62
65 31 47
66 27 85
67 12 70
68 95 39
69 41 17
70 61 6
71 8 42
72 31 2
73 6 92
74 36 46
75 86 42
76 13 35
77 88 38
78 92 86
79 81 59
80 13 15
81 88 76
82 97 4
83 45 82
84 14 47
85 26 25
86 57 14
87 25 84
88 60 16
89 2 31
90 99 28
91 95 17
92 70 45
93 9 22
94 20 21
95 57 19
96 11 72
97 10 72
98 87 7
99 92 38
100 38 35
