1 33 74
2 81 18
3 21 53
4 49 92
5 74 30
6 4 74
7 94 65
8 24 86
9 87 76
10 8 46
11 8 17
12 77 67
13 26 92
14 17 54
15 3 51
16 51 90
17 91 83
18 4 50
19 53 91
20 64 39
21 10 39
22 88 90
23 17 58
24 52 13
25 74 14
26 13 33
27 65 6
28 65 23
29 46 15
30 70 44
31 62 64
32 34 11
33 23 6
34 4 11
35 14 2
36 91 63
37 67 19
38 56 74
39 80 92
40 65 55
41 96 85
42 91 72
43 44 1
44 25 94
45 37 70
46 80 94
47 46 75
48 93 86
49 39 28
50 41 47
51 86 61
52 27 4
53 56 65
54 45 37
55 77 15
56 51 79
57 88 18
58 86 62
59 71 43
60 58 96
61 80 43
62 19 17
63 45 45
64 73 7
65 92 17
66 40 10
67 43 72
68 81 52
69 28 50
70 59 92
71 91 98
72 11 1
73 21 18
74 6 6
75 67 2
76 84 95
77 95 97
78 21 29
79 37 62
80 36 17
81 76 17
82 91 53
83 49 70
84 82 53
85 71 27
86 67 58
87 96 46
88 62 91
89 9 69
90 23 7
91 41 72
92 38 16
93 45 73
94 88 47
95 91 42
96 55 13
97 26 53
98 51 33
99 58 15
100 71 4
