1 59 38
2 10 99
3 70 22
4 82 94
5 94 71
6 99 33
7 49 86
8 71 7
9 48 93
10 63 36
11 12 32
12 91 17
13 88 11
14 27 1
15 67 78
16 32 10
17 5 45
18 73 11
19 59 6
20 11 52
21 48 81
22 26 98
23 2 54
24 83 52
25 58 9
26 87 11
27 70 29
28 23 36
29 37 95
30 52 91
31 68 21
32 53 31
33 86 58
34 69 73
35 47 40
36 54 67
37 20 58
38 81 79
39 90 64
40 20 88
41 23 94
42 13 47
43 59 91
44 86 75
45 80 28
46 27 52
47 7 17
48 23 79
49 72 3
50 50 57
51 46 12
52 74 77
53 25 83
54 48 60
55 87 22
56 81 28
57 26 15
58 71 66
59 36 71
60 53 47
61 4 80
62 64 68
63 49 88
64 3 94
65 69 78
66 32 37
67 58 38
68 51 72
69 18 18
70 70 28
71 58 62
72 91 36
73 97 12
74 64 95
75 51 47
76 8 19
77 34 99
78 43 29
79 54 83
80 69 68
81 26 69
82 96 90
83 78 60
84 78 94
85 94 97
86 60 72
87 55 50
88 82 32
89 5 5
90 57 61
91 41 27
92 52 11
93 36 14
94 8 25
95 72 80
96 17 47
97 30 32
98 93 96
99 89 51
100 64 42
