1 28 40
2 73 30
3 54 46
4 77 9
5 48 59
6 98 33
7 9 93
8 10 77
9 73 91
10 59 25
11 73 83
12 52 22
13 25 9
14 44 22
15 50 76
16 31 25
17 48 65
18 3 25
19 90 43
20 59 81
21 80 7
22 36 42
23 44 23
24 58 13
25 81 75
26 53 14
27 68 89
28 50 10
29 20 44
30 93 60
31 3 42
32 5 77
33 30 52
34 7 32
35 1 92
36 53 97
37 29 60
38 92 80
39 30 82
40 66 7
41 92 9
42 17 38
43 26 94
44 87 74
45 94 4
46 73 9
47 25 93
48 35 8
49 17 97
50 16 73
51 37 68
52 69 62
53 9 98
54 56 12
55 2 89
56 9 63
57 20 78
58 17 24
59 93 84
60 30 46
61 86 5
62 52 82
63 97 13
64 6 98
65 92 76
66 31 79
67 39 69
68 27 30
69 76 79
70 78 2
71 86 91
72 75 40
73 17 49
74 82 2
75 8 73
76 58 7
77 71 44
78 66 98
79 93 8
80 13 82
81 79 43
82 17 80
83 40 26
84 67 12
85 27 40
86 78 19
87 2 59
88 69 47
89 78 62
90 14 3
91 95 6
92 67 92
93 66 95
94 18 79
95 74 17
96 68 47
97 43 27
98 3 11
99 62 94
100 44 69
