1 69 86
2 85 20
3 26 28
4 72 8
5 89 51
6 68 8
7 85 8
8 88 12
9 74 40
10 82 87
11 62 62
12 62 4
13 73 59
14 46 20
15 50 96
16 15 15
17 22 26
18 47 9
19 14 69
20 25 55
21 27 98
22 66 53
23 61 67
24 86 65
25 23 16
26 54 90
27 77 11
28 16 71
29 90 48
30 80 77
31 24 57
32 29 67
33 29 61
34 37 57
35 94 21
36 80 93
37 2 97
38 9 63
39 42 8
40 61 42
41 41 58
42 4 16
43 60 61
44 64 63
45 8 12
46 48 45
47 32 22
48 9 90
49 28 6
50 45 17
51 39 94
52 27 78
53 75 91
54 90 79
55 34 33
56 18 50
57 35 69
58 54 16
59 75 38
60 55 60
61 8 35
62 28 14
63 25 61
64 67 66
65 97 47
66 30 41
67 8 31
68 72 16
69 50 3
70 73 43
71 34 79
72 79 47
73 54 28
74 96 47
75 80 94
76 52 97
77 10 77
78 64 77
79 47 74
80 34 30
81 57 54
82 14 87
83 55 97
84 35 68
85 65 30
86 82 1
87 29 9
88 82 45
89 88 88
90 86 68
91 25 14
92 35 63
93 78 77
94 64 35
95 30 86
96 56 71
97 67 71
98 83 17
99 24 90
100 54 50
