1 70 85
2 84 59
3 63 74
4 76 6
5 46 88
6 80 66
7 36 58
8 3 58
9 5 47
10 68 30
11 93 19
12 58 51
13 9 73
14 92 80
15 74 83
16 52 5
17 78 81
18 2 92
19 81 41
20 9 44
21 25 67
22 18 85
23 6 81
24 74 99
25 58 92
26 68 24
27 12 37
28 75 19
29 54 93
30 79 36
31 84 42
32 47 87
33 77 87
34 36 44
35 38 2
36 20 69
37 79 8
38 95 10
39 90 77
40 68 53
41 45 40
42 73 81
43 95 84
44 28 13
45 15 69
46 85 72
47 41 93
48 67 85
49 60 54
50 56 32
51 10 58
52 27 51
53 24 94
54 86 42
55 1 44
56 19 39
57 26 28
58 85 22
59 15 76
60 92 32
61 26 25
62 65 47
63 98 98
64 55 96
65 57 12
66 97 74
67 60 41
68 64 14
69 14 88
70 30 91
71 36 5
72 76 32
73 2 75
74 74 66
75 29 58
76 59 26
77 61 61
78 42 19
79 3 47
80 67 72
81 42 68
82 60 95
83 45 9
84 81 34
85 43 31
86 31 70
87 87 13
88 7 60
89 17 81
90 71 40
91 89 3
92 36 98
93 37 57
94 3 51
95 89 54
96 78 17
97 27 11
98 10 22
99 11 48
100 43 41
