1 34 46
2 15 81
3 42 90
4 81 70
5 49 38
6 58 80
7 85 59
8 21 92
9 44 14
10 97 17
11 48 33
12 67 80
13 95 28
14 17 90
15 87 77
16 9 22
17 73 61
18 89 42
19 97 65
20 73 8
21 3 51
22 73 66
23 66 93
24 72 78
25 24 93
26 23 93
27 53 64
28 73 25
29 79 99
30 4 18
31 73 22
32 71 68
33 99 17
34 34 6
35 94 59
36 81 78
37 15 20
38 20 54
39 54 84
40 40 79
41 66 50
42 23 19
43 77 45
44 18 99
45 42 30
46 27 98
47 18 25
48 48 92
49 15 34
50 18 92
