1 45 89
2 8 66
3 85 92
4 69 27
5 96 91
6 53 7
7 52 93
8 2 40
9 100 43
10 48 66
11 68 81
12 65 30
13 67 81
14 68 54
15 97 96
16 66 25
17 89 12
18 49 13
19 66 96
20 10 62
21 84 78
22 70 67
23 16 16
24 39 77
25 48 100
26 48 40
27 57 75
28 91 41
29 24 70
30 46 25
31 54 70
32 59 71
33 81 10
34 98 22
35 2 2
36 65 100
37 12 95
38 37 46
39 28 85
40 57 6
41 28 44
42 41 81
43 6 17
44 5 4
45 86 55
46 94 12
47 77 99
48 19 11
49 17 26
50 59 6
