1 55 90
2 94 95
3 54 30
4 93 54
5 10 7
6 45 20
7 47 11
8 24 91
9 48 17
10 95 58
11 54 33
12 86 39
13 51 14
14 49 60
15 64 31
16 83 52
17 68 6
18 26 36
19 44 9
20 83 97
21 73 32
22 14 98
23 14 30
24 30 31
25 44 41
26 35 72
27 21 81
28 62 33
29 41 32
30 24 62
31 38 95
32 49 9
33 17 59
34 15 84
35 63 33
36 35 51
37 16 96
38 42 60
39 42 30
40 95 69
41 8 64
42 60 74
43 92 12
44 10 71
45 19 26
46 64 91
47 55 58
48 45 19
49 80 35
50 36 41
