1 46 19
2 83 69
3 43 53
4 85 86
5 87 30
6 44 7
7 64 28
8 53 95
9 73 5
10 33 63
11 22 62
12 47 72
13 23 31
14 52 47
15 65 11
16 97 44
17 13 39
18 31 90
19 19 13
20 41 29
21 91 53
22 85 84
23 8 24
24 35 1
25 11 1
26 88 58
27 90 4
28 81 6
29 70 80
30 51 37
31 13 68
32 71 42
33 68 3
34 24 49
35 64 13
36 31 7
37 74 81
38 96 7
39 56 82
40 90 3
41 5 98
42 27 36
43 4 19
44 61 4
45 20 23
46 69 87
47 30 59
48 22 91
49 24 98
50 21 91
