1 26 58
2 85 33
3 44 86
4 58 25
5 95 50
6 96 65
7 78 93
8 6 82
9 21 20
10 58 54
11 42 73
12 64 70
13 63 68
14 2 3
15 14 35
16 75 80
17 14 26
18 30 26
19 91 42
20 69 47
21 2 22
22 10 51
23 9 65
24 23 70
25 15 14
26 91 67
27 66 87
28 36 5
29 44 74
30 36 51
31 70 80
32 8 11
33 23 49
34 51 44
35 94 37
36 38 67
37 97 71
38 47 97
39 42 67
40 30 44
41 92 37
42 97 82
43 27 61
44 17 45
45 4 54
46 20 53
47 67 9
48 90 6
49 92 35
50 60 82
