1 18 27
2 77 77
3 17 40
4 16 87
5 38 59
6 100 26
7 61 96
8 91 90
9 40 19
10 52 37
11 92 35
12 3 2
13 77 38
14 19 65
15 92 69
16 36 88
17 83 41
18 93 62
19 17 4
20 63 71
21 87 61
22 90 33
23 23 45
24 13 11
25 55 41
26 67 52
27 17 76
28 54 62
29 39 78
30 71 53
31 5 87
32 90 87
33 34 49
34 84 62
35 59 73
36 71 28
37 58 78
38 95 13
39 7 98
40 9 42
41 33 90
42 68 12
43 11 13
44 14 12
45 86 5
46 40 70
47 82 41
48 40 97
49 61 3
50 17 1
