1 85 33
2 62 2
3 22 28
4 23 15
5 23 61
6 50 44
7 10 21
8 77 57
9 64 59
10 91 96
11 72 39
12 14 37
13 57 76
14 74 100
15 68 54
16 82 14
17 91 44
18 91 90
19 40 97
20 17 15
21 9 49
22 46 90
23 31 8
24 85 63
25 31 54
26 65 63
27 17 41
28 71 67
29 93 96
30 23 40
31 48 44
32 47 64
33 92 34
34 84 91
35 4 87
36 76 40
37 50 67
38 57 79
39 58 64
40 18 4
41 86 16
42 51 60
43 67 48
44 49 21
45 3 58
46 63 55
47 50 19
48 99 17
49 87 37
50 59 80
