1 46 81
2 7 74
3 92 68
4 15 6
5 29 51
6 8 35
7 26 95
8 20 10
9 25 49
10 38 30
11 3 17
12 88 44
13 74 17
14 78 96
15 72 3
16 49 14
17 100 63
18 75 87
19 95 2
20 54 57
21 94 100
22 18 44
23 39 63
24 19 43
25 17 55
26 25 22
27 76 23
28 62 34
29 4 27
30 50 92
31 8 49
32 69 16
33 96 23
34 95 92
35 92 51
36 58 77
37 74 44
38 37 50
39 85 54
40 67 69
41 4 42
42 65 58
43 99 35
44 47 14
45 1 33
46 38 26
47 67 13
48 70 76
49 5 76
50 43 84
