1 44 50
2 20 54
3 48 36
4 25 67
5 68 68
6 43 6
7 68 35
8 8 15
9 29 89
10 23 49
11 47 19
12 64 22
13 95 8
14 95 33
15 53 34
16 98 36
17 20 68
18 93 34
19 35 98
20 65 75
21 10 73
22 54 32
23 96 79
24 32 34
25 5 36
26 35 47
27 80 36
28 52 52
29 70 6
30 54 39
31 71 21
32 60 46
33 4 49
34 30 74
35 99 49
36 70 5
37 48 5
38 45 46
39 76 24
40 90 44
41 29 82
42 10 67
43 18 30
44 51 27
45 89 46
46 52 17
47 4 82
48 45 46
49 52 41
50 11 53
