1 38 41
2 60 89
3 69 4
4 8 44
5 27 37
6 65 60
7 23 80
8 44 72
9 2 3
10 90 44
11 30 90
12 26 96
13 8 78
14 81 95
15 45 94
16 67 72
17 81 48
18 24 65
19 4 42
20 89 48
21 47 37
22 30 32
23 17 47
24 66 23
25 30 84
26 44 94
27 98 47
28 84 78
29 79 66
30 54 29
31 89 100
32 9 61
33 9 90
34 22 12
35 100 69
36 73 38
37 36 46
38 17 94
39 70 46
40 70 3
41 53 26
42 74 53
43 30 58
44 60 58
45 96 97
46 57 93
47 85 21
48 95 49
49 33 50
50 32 21
