1 7 96
2 14 53
3 43 66
4 31 45
5 79 86
6 68 76
7 51 87
8 84 67
9 65 89
10 35 62
11 92 6
12 64 24
13 16 48
14 6 92
15 40 58
16 100 91
17 6 44
18 7 63
19 82 42
20 11 98
21 2 1
22 6 60
23 100 91
24 60 43
25 38 44
26 29 99
27 52 20
28 40 52
29 16 19
30 1 25
31 74 23
32 60 20
33 4 80
34 83 69
35 89 43
36 46 96
37 54 37
38 37 87
39 33 100
40 56 50
41 38 61
42 94 34
43 90 84
44 8 83
45 83 65
46 38 21
47 41 4
48 17 14
49 33 28
50 99 28
