1 88 36
2 73 56
3 62 21
4 52 68
5 37 80
6 48 67
7 36 8
8 47 56
9 38 55
10 81 16
11 90 55
12 78 48
13 92 33
14 29 17
15 92 88
16 66 85
17 78 70
18 50 8
19 23 18
20 45 74
21 47 17
22 86 72
23 73 19
24 13 46
25 32 81
26 74 38
27 73 82
28 88 82
29 79 57
30 51 32
31 11 21
32 79 4
33 78 14
34 87 2
35 82 44
36 71 22
37 12 54
38 22 92
39 43 93
40 16 50
41 20 25
42 18 98
43 76 38
44 45 78
45 69 100
46 25 62
47 76 33
48 90 15
49 44 19
50 57 47
