1 15 5
2 85 70
3 54 87
4 76 62
5 28 76
6 91 24
7 74 93
8 13 6
9 90 58
10 7 96
11 7 25
12 12 5
13 69 3
14 13 13
15 72 19
16 41 30
17 30 72
18 35 76
19 23 47
20 19 15
21 20 11
22 9 76
23 11 81
24 32 89
25 42 88
26 52 57
27 88 11
28 76 89
29 66 7
30 62 50
31 12 30
32 92 9
33 32 57
34 13 65
35 53 85
36 31 34
37 74 60
38 65 54
39 41 83
40 21 25
41 63 48
42 6 20
43 90 65
44 54 71
45 49 21
46 74 7
47 70 39
48 79 2
49 24 65
50 23 41
