1 97 4
2 47 7
3 94 75
4 30 26
5 46 55
6 90 21
7 92 27
8 27 2
9 57 9
10 73 51
11 60 74
12 35 7
13 93 7
14 63 85
15 40 81
16 97 23
17 94 79
18 41 2
19 62 55
20 82 58
21 81 24
22 35 33
23 60 15
24 90 45
25 71 55
26 87 88
27 88 18
28 66 90
29 11 16
30 22 50
31 65 55
32 27 2
33 20 48
34 26 12
35 16 95
36 97 60
37 41 27
38 50 2
39 40 14
40 72 75
41 13 58
42 11 53
43 77 58
44 68 83
45 47 42
46 16 42
47 4 99
48 9 21
49 22 86
50 94 89
