1 36 14
2 78 36
3 13 61
4 43 75
5 30 17
6 34 2
7 37 82
8 30 68
9 55 15
10 61 48
11 34 6
12 67 17
13 17 56
14 97 6
15 3 58
16 83 71
17 36 68
18 19 93
19 37 99
20 92 51
21 87 20
22 25 71
23 77 64
24 26 27
25 55 62
26 37 52
27 64 88
28 87 64
29 5 27
30 5 73
31 23 79
32 20 31
33 57 80
34 24 40
35 40 63
36 80 62
37 85 50
38 77 26
39 68 85
40 26 99
41 18 8
42 70 29
43 35 75
44 24 78
45 56 20
46 98 4
47 69 78
48 56 86
49 7 52
50 13 48
