1 65 89
2 51 33
3 31 33
4 90 21
5 96 96
6 98 84
7 94 62
8 21 52
9 2 87
10 84 13
11 79 39
12 85 19
13 99 72
14 84 62
15 9 14
16 66 61
17 6 80
18 84 74
19 83 22
20 62 81
21 21 99
22 50 54
23 71 99
24 24 41
25 28 82
26 21 3
27 18 73
28 97 22
29 6 9
30 9 11
31 58 7
32 85 56
33 49 18
34 16 17
35 52 5
36 14 12
37 9 98
38 60 25
39 21 95
40 19 44
41 39 41
42 12 85
43 10 57
44 40 4
45 58 56
46 51 42
47 48 17
48 32 21
49 22 48
50 29 35
