1 15 13
2 50 80
3 91 99
4 75 44
5 8 80
6 8 30
7 72 4
8 23 100
9 88 54
10 51 71
11 33 60
12 56 44
13 88 84
14 91 86
15 95 4
16 61 30
17 92 76
18 38 70
19 6 15
20 55 42
21 55 37
22 57 55
23 52 47
24 93 54
25 31 85
26 48 3
27 10 20
28 3 44
29 19 21
30 17 48
31 84 69
32 15 80
33 15 65
34 78 20
35 72 67
36 25 60
37 79 52
38 66 9
39 39 97
40 50 24
41 22 94
42 47 11
43 2 97
44 10 16
45 86 99
46 58 26
47 29 61
48 15 24
49 62 59
50 52 18
