1 13 51
2 99 23
3 22 54
4 16 62
5 66 69
6 26 95
7 95 20
8 73 93
9 61 9
10 46 64
11 63 28
12 41 41
13 78 35
14 61 44
15 21 49
16 34 85
17 4 6
18 57 7
19 68 52
20 33 19
21 52 97
22 22 29
23 43 14
24 58 30
25 10 98
26 71 21
27 55 90
28 50 58
29 73 62
30 89 96
31 52 57
32 67 5
33 22 23
34 79 31
35 79 96
36 91 7
37 82 76
38 27 53
39 60 67
40 51 77
41 19 16
42 79 28
43 93 20
44 55 6
45 33 40
46 36 78
47 55 86
48 35 17
49 72 19
50 46 83
