1 31 50
2 77 65
3 79 93
4 42 93
5 95 29
6 29 32
7 62 73
8 43 48
9 72 82
10 39 36
11 3 9
12 81 19
13 15 49
14 87 54
15 29 81
16 46 66
17 69 6
18 3 32
19 6 65
20 1 36
21 97 94
22 72 51
23 67 40
24 58 40
25 11 19
26 70 39
27 61 62
28 59 14
29 23 92
30 100 58
31 99 100
32 73 25
33 8 57
34 42 45
35 29 33
36 4 49
37 74 61
38 21 22
39 13 9
40 8 14
41 54 1
42 80 58
43 20 64
44 33 87
45 99 22
46 74 10
47 31 16
48 60 52
49 93 89
50 68 11
