1 82 94
2 77 2
3 58 11
4 98 16
5 34 81
6 55 61
7 83 89
8 23 93
9 28 51
10 66 38
11 11 48
12 52 89
13 92 6
14 44 10
15 83 56
16 2 88
17 71 17
18 79 95
19 71 6
20 77 14
21 52 24
22 16 64
23 63 43
24 85 15
25 21 2
26 64 96
27 72 68
28 41 7
29 12 78
30 26 18
31 44 82
32 8 88
33 82 30
34 28 85
35 86 16
36 33 10
37 97 27
38 73 44
39 11 4
40 9 8
41 21 50
42 100 41
43 81 32
44 33 3
45 27 64
46 58 5
47 81 46
48 96 60
49 19 52
50 94 85
51 88 17
52 70 13
53 66 25
54 49 63
55 65 72
56 12 43
57 45 74
58 70 5
59 61 96
60 85 32
61 99 5
62 39 99
63 26 81
64 89 68
65 11 19
66 100 50
67 39 45
68 96 23
69 84 68
70 17 22
71 46 18
72 18 80
73 38 64
74 26 62
75 13 83
76 58 39
77 19 60
78 20 76
79 86 88
80 8 68
