1 5 99
2 93 11
3 90 27
4 35 76
5 52 88
6 49 40
7 46 39
8 32 70
9 51 43
10 54 37
11 62 46
12 34 55
13 76 78
14 55 89
15 93 24
16 78 95
17 88 59
18 17 46
19 73 29
20 36 84
21 21 46
22 65 72
23 53 77
24 53 79
25 73 15
26 60 63
27 51 88
28 33 3
29 22 25
30 56 25
31 23 93
32 4 96
33 35 63
34 99 11
35 32 3
36 18 48
37 16 42
38 20 33
39 45 39
40 57 76
41 36 61
42 46 20
43 28 31
44 46 72
45 5 35
46 28 50
47 65 66
48 86 18
49 32 78
50 72 42
51 85 20
52 96 50
53 17 58
54 92 6
55 98 25
56 70 100
57 39 8
58 70 63
59 50 25
60 39 92
61 70 99
62 28 21
63 86 75
64 56 97
65 93 84
66 18 15
67 29 16
68 89 60
69 35 90
70 17 16
71 66 99
72 24 85
73 13 91
74 41 88
75 53 90
76 80 78
77 93 23
78 67 29
79 28 17
80 47 62
