1 71 94
2 7 45
3 93 53
4 7 52
5 49 52
6 19 53
7 7 55
8 93 49
9 69 98
10 41 81
11 35 56
12 68 91
13 40 91
14 34 19
15 76 52
16 63 13
17 63 25
18 20 91
19 87 80
20 58 25
21 67 30
22 77 62
23 72 45
24 79 2
25 49 31
26 56 99
27 82 19
28 22 31
29 40 78
30 97 4
31 36 95
32 77 20
33 67 33
34 74 100
35 39 9
36 79 67
37 46 16
38 35 90
39 29 16
40 52 1
41 66 25
42 69 72
43 24 40
44 87 74
45 11 6
46 81 12
47 88 77
48 16 24
49 66 90
50 72 89
51 14 69
52 6 94
53 63 3
54 45 6
55 98 26
56 62 22
57 18 13
58 10 38
59 61 32
60 53 82
61 94 71
62 13 78
63 46 91
64 30 97
65 70 89
66 68 21
67 54 55
68 76 14
69 25 95
70 12 15
71 83 100
72 62 32
73 30 43
74 58 78
75 79 72
76 10 6
77 61 90
78 74 85
79 96 92
80 73 2
