1 69 65
2 14 12
3 76 91
4 25 23
5 92 68
6 3 10
7 20 54
8 27 30
9 61 78
10 52 39
11 45 20
12 91 1
13 3 48
14 96 22
15 96 94
16 70 63
17 80 38
18 10 80
19 95 74
20 15 60
21 75 66
22 52 83
23 75 23
24 27 87
25 82 22
26 33 67
27 37 17
28 37 84
29 18 41
30 84 12
31 13 55
32 70 97
33 41 45
34 50 78
35 42 25
36 53 4
37 88 39
38 77 22
39 60 33
40 7 91
41 16 76
42 38 49
43 4 5
44 71 12
45 60 82
46 42 49
47 21 33
48 35 85
49 8 45
50 82 85
51 3 6
52 74 76
53 81 63
54 78 51
55 19 79
56 12 27
57 30 59
58 42 81
59 69 30
60 81 53
61 42 55
62 44 31
63 54 55
64 12 7
65 64 13
66 9 22
67 44 46
68 14 95
69 33 29
70 8 40
71 73 19
72 91 69
73 24 3
74 73 5
75 41 5
76 55 69
77 8 59
78 20 96
79 24 12
80 52 31
