1 84 99
2 21 17
3 3 17
4 31 67
5 41 60
6 64 73
7 4 14
8 10 4
9 47 85
10 78 78
11 89 27
12 48 9
13 16 77
14 52 92
15 99 77
16 51 53
17 89 53
18 85 55
19 95 35
20 43 54
21 27 98
22 37 39
23 2 98
24 28 14
25 97 80
26 88 69
27 54 39
28 49 15
29 90 19
30 14 96
31 65 8
32 79 82
33 31 32
34 69 42
35 5 4
36 3 4
37 22 28
38 91 100
39 85 8
40 26 13
41 80 74
42 8 4
43 65 73
44 98 43
45 4 21
46 60 52
47 63 86
48 34 29
49 34 88
50 42 4
51 86 81
52 60 83
53 44 16
54 47 29
55 67 29
56 71 31
57 35 78
58 31 26
59 19 69
60 97 8
61 40 60
62 85 98
63 95 31
64 80 17
65 49 90
66 22 1
67 74 91
68 71 53
69 40 48
70 73 34
71 39 13
72 32 87
73 25 19
74 6 19
75 87 34
76 54 15
77 9 29
78 38 20
79 42 28
80 90 62
