1 11 51
2 17 59
3 50 56
4 63 44
5 5 37
6 61 72
7 3 33
8 99 26
9 23 85
10 40 84
11 66 11
12 40 32
13 67 21
14 71 64
15 57 86
16 67 3
17 65 10
18 3 13
19 51 82
20 46 32
21 49 20
22 55 18
23 29 30
24 87 1
25 52 23
26 86 71
27 23 8
28 9 74
29 17 77
30 64 45
31 84 53
32 19 61
33 17 63
34 53 35
35 62 33
36 8 37
37 88 81
38 15 61
39 84 70
40 52 28
41 77 20
42 15 37
43 71 39
44 34 59
45 95 75
46 52 94
47 42 27
48 70 65
49 95 44
50 90 80
51 43 46
52 56 58
53 48 72
54 13 4
55 89 21
56 16 66
57 43 66
58 74 55
59 15 28
60 76 33
61 93 70
62 85 85
63 37 7
64 46 70
65 60 3
66 92 45
67 36 26
68 3 85
69 81 59
70 77 89
71 39 16
72 3 68
73 21 71
74 69 43
75 30 60
76 99 30
77 26 37
78 70 30
79 55 60
80 70 22
