1 34 86
2 89 9
3 68 85
4 70 97
5 37 97
6 9 51
7 74 74
8 48 20
9 43 52
10 52 17
11 30 24
12 36 95
13 45 9
14 38 82
15 24 8
16 85 55
17 5 29
18 30 92
19 4 35
20 6 65
21 37 31
22 90 12
23 20 29
24 22 61
25 4 2
26 42 43
27 68 75
28 37 51
29 25 69
30 34 5
31 64 27
32 18 69
33 95 46
34 41 73
35 12 70
36 85 2
37 23 23
38 50 84
39 98 62
40 17 68
41 68 38
42 78 98
43 96 21
44 69 74
45 9 96
46 97 33
47 73 82
48 6 15
49 6 65
50 65 51
51 22 23
52 35 52
53 88 17
54 78 15
55 1 34
56 75 46
57 49 46
58 33 2
59 84 74
60 14 54
61 55 42
62 96 82
63 28 71
64 89 91
65 62 31
66 98 64
67 43 91
68 87 50
69 55 74
70 23 91
71 91 72
72 40 87
73 88 27
74 26 13
75 80 18
76 50 70
77 48 72
78 55 11
79 83 52
80 15 88
