1 35 65
2 5 27
3 81 70
4 62 23
5 42 89
6 59 91
7 84 31
8 93 30
9 9 70
10 48 95
11 53 9
12 42 40
13 11 68
14 35 27
15 88 91
16 64 17
17 62 36
18 62 46
19 47 19
20 34 83
21 52 22
22 54 82
23 30 5
24 47 14
25 87 29
26 26 8
27 81 43
28 37 76
29 49 45
30 6 58
31 8 57
32 8 45
33 69 29
34 76 31
35 5 19
36 73 68
37 9 56
38 19 34
39 92 34
40 17 11
41 55 41
42 75 2
43 69 84
44 53 44
45 29 4
46 25 76
47 80 33
48 13 9
49 9 11
50 67 47
51 86 95
52 35 38
53 58 79
54 23 56
55 62 71
56 69 39
57 78 33
58 44 60
59 91 37
60 94 46
61 60 34
62 39 61
63 85 4
64 50 23
65 59 67
66 8 98
67 6 36
68 78 40
69 75 89
70 91 3
71 10 33
72 77 10
73 52 47
74 33 9
75 98 73
76 72 78
77 82 46
78 50 35
79 80 21
80 92 93
