1 17 63
2 41 33
3 99 73
4 61 30
5 15 91
6 7 41
7 92 60
8 79 29
9 94 10
10 6 6
11 55 78
12 91 38
13 73 5
14 65 73
15 67 31
16 64 43
17 45 42
18 45 5
19 28 75
20 57 63
21 67 13
22 85 30
23 94 9
24 76 83
25 53 49
26 70 61
27 34 10
28 45 59
29 82 98
30 99 75
31 88 48
32 81 66
33 23 59
34 78 51
35 49 47
36 92 32
37 58 86
38 10 75
39 52 25
40 77 13
41 41 50
42 13 8
43 72 79
44 48 48
45 46 61
46 42 11
47 45 51
48 56 63
49 41 62
50 26 38
51 88 41
52 37 49
53 74 75
54 16 90
55 45 88
56 65 88
57 64 15
58 45 32
59 32 20
60 22 63
61 13 64
62 4 64
63 8 55
64 73 3
65 22 13
66 28 74
67 48 73
68 65 18
69 31 57
70 94 32
71 34 46
72 28 75
73 59 63
74 33 60
75 55 33
76 92 52
77 64 92
78 53 61
79 26 38
80 22 43
