1 18 32
2 60 96
3 70 14
4 99 3
5 25 70
6 24 73
7 15 16
8 10 63
9 59 64
10 28 72
11 74 84
12 87 74
13 86 1
14 51 36
15 92 87
16 57 3
17 13 62
18 51 76
19 65 38
20 55 74
21 16 24
22 68 77
23 33 34
24 45 66
25 93 18
26 34 62
27 82 44
28 25 51
29 20 59
30 90 22
31 60 68
32 64 4
33 14 35
34 38 6
35 3 60
36 43 77
37 30 50
38 71 74
39 69 3
40 10 40
41 44 45
42 50 17
43 2 53
44 45 65
45 69 68
46 68 27
47 83 56
48 46 97
49 73 18
50 41 49
51 17 4
52 17 73
53 13 34
54 4 76
55 16 73
56 71 3
57 76 72
58 26 18
59 7 21
60 56 23
61 48 22
62 30 32
63 40 34
64 75 100
65 71 93
66 33 10
67 19 56
68 36 10
69 40 76
70 89 34
71 41 65
72 4 65
73 85 41
74 60 92
75 48 17
76 67 18
77 93 26
78 78 59
79 88 54
80 22 17
