1 69 31
2 84 8
3 27 31
4 92 67
5 75 79
6 56 5
7 36 24
8 31 95
9 96 86
10 44 26
11 52 2
12 95 58
13 90 20
14 41 27
15 33 42
16 26 20
17 10 67
18 37 72
19 68 25
20 23 73
21 88 85
22 74 85
23 28 8
24 4 73
25 40 17
26 9 69
27 11 78
28 71 36
29 56 61
30 77 83
31 8 53
32 92 92
33 40 17
34 93 84
35 79 55
36 90 18
37 29 78
38 36 30
39 49 36
40 51 14
41 47 2
42 69 45
43 97 78
44 39 54
45 58 25
46 63 50
47 85 47
48 31 95
49 41 65
50 28 50
51 74 12
52 54 52
53 71 59
54 64 92
55 68 26
56 43 26
57 13 81
58 28 79
59 66 73
60 8 9
61 34 19
62 97 49
63 27 73
64 15 36
65 22 10
66 66 13
67 43 49
68 75 17
69 17 41
70 37 63
71 33 61
72 55 12
73 60 14
74 36 37
75 45 2
76 90 84
77 52 67
78 35 44
79 65 49
80 19 9
