1 25 42
2 67 51
3 96 92
4 100 54
5 11 3
6 46 87
7 99 53
8 75 49
9 6 67
10 25 54
11 37 1
12 39 92
13 19 51
14 48 43
15 53 43
16 37 33
17 56 80
18 90 69
19 82 32
20 54 11
21 9 43
22 5 26
23 89 38
24 70 93
25 48 100
26 84 99
27 23 2
28 29 75
29 32 64
30 36 48
31 74 34
32 14 34
33 27 35
34 64 45
35 61 90
36 46 54
37 41 97
38 73 76
39 14 1
40 85 13
41 69 91
42 79 15
43 75 61
44 51 25
45 53 31
46 30 41
47 20 94
48 49 56
49 49 93
50 43 39
51 76 65
52 16 91
53 13 72
54 57 48
55 71 66
56 73 72
57 95 88
58 89 81
59 77 59
60 97 92
61 53 64
62 12 98
63 79 81
64 96 60
65 62 63
66 37 52
67 50 17
68 6 19
69 59 90
70 16 90
71 43 25
72 89 28
73 81 55
74 50 21
75 90 39
76 62 20
77 30 94
78 18 40
79 21 18
80 15 99
