1 41 53
2 40 75
3 36 44
4 19 37
5 75 71
6 33 11
7 10 89
8 54 10
9 58 12
10 75 10
11 74 80
12 5 35
13 5 61
14 98 6
15 50 3
16 91 30
17 13 74
18 93 61
19 28 35
20 9 10
21 47 22
22 63 24
23 10 37
24 75 27
25 32 7
26 78 41
27 62 91
28 5 62
29 58 35
30 57 36
31 80 10
32 83 88
33 9 60
34 49 56
35 60 4
36 63 91
37 89 78
38 30 66
39 94 12
40 71 55
41 74 90
42 22 24
43 72 2
44 21 9
45 62 35
46 7 2
47 91 18
48 43 36
49 51 64
50 72 82
51 88 8
52 35 49
53 21 9
54 53 9
55 76 100
56 7 22
57 24 75
58 98 3
59 97 50
60 55 87
61 100 35
62 40 43
63 86 44
64 39 96
65 93 54
66 83 4
67 48 71
68 77 44
69 87 96
70 4 62
71 47 55
72 50 48
73 48 85
74 57 62
75 12 45
76 15 4
77 83 30
78 7 41
79 44 75
80 41 84
