1 96 48
2 11 79
3 22 35
4 62 72
5 50 73
6 36 6
7 17 91
8 95 2
9 68 49
10 97 24
11 50 51
12 69 17
13 3 3
14 55 29
15 5 60
16 68 4
17 4 85
18 56 68
19 73 45
20 97 89
21 47 75
22 36 41
23 49 44
24 90 33
25 88 37
26 26 67
27 29 99
28 27 66
29 11 51
30 76 18
31 23 18
32 60 12
33 5 97
34 100 98
35 88 87
36 62 46
37 47 11
38 13 15
39 64 58
40 79 44
41 94 87
42 99 73
43 23 88
44 97 67
45 97 66
46 85 76
47 40 50
48 22 28
49 17 64
50 25 49
51 65 97
52 74 14
53 57 76
54 99 50
55 13 1
56 91 67
57 16 39
58 28 40
59 68 38
60 49 36
61 36 55
62 90 99
63 98 54
64 86 82
65 81 83
66 66 34
67 76 76
68 53 55
69 18 86
70 82 14
71 29 1
72 62 25
73 10 46
74 73 2
75 78 32
76 55 80
77 28 37
78 55 23
79 17 92
80 90 90
