1 49 83
2 11 85
3 5 45
4 99 30
5 40 29
6 88 16
7 3 40
8 71 84
9 49 25
10 6 17
11 31 80
12 10 93
13 49 42
14 92 76
15 97 33
16 36 22
17 49 53
18 33 33
19 14 72
20 13 31
21 26 35
22 60 85
23 79 13
24 45 65
25 74 32
26 73 54
27 90 3
28 96 97
29 60 78
30 57 13
31 46 79
32 26 41
33 95 90
34 19 74
35 83 92
36 23 21
37 18 14
38 39 53
39 12 79
40 66 8
41 90 36
42 32 71
43 65 18
44 91 18
45 6 63
46 17 44
47 69 22
48 70 67
49 10 60
50 9 17
51 17 22
52 4 2
53 32 45
54 15 73
55 57 86
56 25 75
57 34 58
58 45 95
59 96 26
60 21 2
61 66 82
62 37 95
63 16 40
64 58 58
65 41 38
66 93 9
67 94 43
68 31 67
69 10 22
70 29 43
71 54 45
72 9 22
73 66 33
74 32 95
75 4 91
76 11 88
77 49 39
78 39 35
79 12 76
80 81 65
