1 86 19
2 66 21
3 36 6
4 29 70
5 50 46
6 40 85
7 11 87
8 36 76
9 80 99
10 77 7
11 91 81
12 37 85
13 69 38
14 88 76
15 28 77
16 26 94
17 75 34
18 8 34
19 76 64
20 78 73
21 6 28
22 36 28
23 38 3
24 7 93
25 14 34
26 5 28
27 14 75
28 25 35
29 5 22
30 50 2
31 64 89
32 30 36
33 59 49
34 98 61
35 90 50
36 96 23
37 64 66
38 66 60
39 20 86
40 78 90
41 59 77
42 68 65
43 14 52
44 28 51
45 95 66
46 45 81
47 74 77
48 27 44
49 7 83
50 99 44
51 78 88
52 28 8
53 88 97
54 42 71
55 13 93
56 10 15
57 100 7
58 54 82
59 28 20
60 44 67
61 69 17
62 62 75
63 3 28
64 78 62
65 13 75
66 25 65
67 18 73
68 23 6
69 69 76
70 29 91
71 51 44
72 64 4
73 47 18
74 4 82
75 75 54
76 74 8
77 80 34
78 43 83
79 73 94
80 46 23
