1 46 76
2 93 35
3 32 18
4 50 74
5 13 3
6 41 59
7 82 8
8 26 95
9 36 66
10 86 42
11 25 77
12 7 38
13 2 38
14 2 86
15 70 39
16 26 83
17 19 44
18 62 14
19 38 89
20 27 98
21 96 18
22 85 16
23 94 93
24 15 73
25 43 9
26 2 71
27 9 25
28 28 16
29 71 60
30 20 26
31 16 74
32 15 11
33 25 47
34 21 32
35 90 19
36 29 47
37 4 76
38 50 51
39 41 54
40 32 96
41 17 48
42 34 22
43 9 87
44 13 64
45 34 84
46 98 87
47 80 94
48 15 99
49 63 13
50 13 88
51 23 39
52 84 63
53 29 23
54 30 12
55 12 52
56 20 68
57 70 70
58 53 12
59 93 82
60 40 74
61 46 61
62 9 87
63 42 95
64 69 47
65 61 85
66 33 21
67 41 47
68 24 80
69 93 16
70 69 83
71 71 14
72 20 83
73 45 75
74 80 1
75 12 89
76 92 25
77 94 59
78 71 81
79 54 36
80 22 44
